<svg width="375" height="157" viewBox="0 0 375 157" fill="none" xmlns="http://www.w3.org/2000/svg">
<path fill-rule="evenodd" clip-rule="evenodd" d="M0 52.3334H5.9716L6 52.3335C8.5773 52.3335 10.8906 54.4228 10.8906 57.0001C13.237 81.3199 33.7314 100.333 58.6667 100.333C83.6019 100.333 104.096 81.3199 106.443 57.0001C106.443 54.4228 108.756 52.3335 111.333 52.3335L111.362 52.3334H375V127H0V52.3334ZM0 157V127H375V157H0Z" fill="#2C79E7"/>
<g filter="url(#filter0_ddd)">
<path d="M96.333 52.5C96.333 31.7893 79.5437 15 58.833 15C38.1223 15 21.333 31.7893 21.333 52.5C21.333 73.2107 38.1223 90 58.833 90C79.5437 90 96.333 73.2107 96.333 52.5Z" fill="#FFD400"/>
</g>
<path d="M48.6603 54.1751L42.1582 58.4141L44.0954 64.2846L44.7851 71.5219L48.9258 73.0117L56.7821 72.8524L64.2133 71.585L63.2225 65.8848L65.219 65.6466L67.8799 56.6649L64.1074 53.3534L60.8461 56.5063L58.171 57.2563L54.0192 56.9054L50.859 56.2059L48.6603 54.1751Z" fill="#1F1C16"/>
<path d="M48.6602 54.1736L50.1763 55.601C50.1763 55.601 48.375 57.0994 46.5168 57.8518C44.5851 58.6404 44.2083 59.2713 44.2083 59.2713C44.2083 59.2713 45.3057 61.4432 46.0254 64.7484C46.3572 66.2673 46.471 71.2648 46.471 71.2648C46.471 71.2648 51.6948 72.7569 54.1558 72.1749C54.7657 72.0306 55.6814 72.876 55.6814 72.876L49.5727 73.0125L44.9865 71.783L44.6254 67.0646L43.7911 62.623L42.29 58.1278L48.6602 54.1736Z" fill="#2D2F2D"/>
<path d="M62.4585 55.1987L59.8782 56.8943L54.8685 57.0914L51.5613 56.3722L50.4308 55.4503L48.9668 53.858L47.8212 50.6246L47.5668 49.9259L46.0397 49.4172L45.1485 47.9567L44.5117 45.8597L45.2125 44.0175L46.8669 43.4457L48.2028 44.079L48.8396 45.4764L49.6036 45.3495L49.858 45.034L49.6036 43.5735L49.5396 41.7312L49.9212 39.1895L49.9062 37.7376L51.0668 35.8859L53.1035 34.4245L56.6674 32.9001L60.613 33.4719L64.0497 35.949L65.6408 38.4899L66.6584 40.3322L66.9128 44.9063L66.1496 48.8447L64.7497 52.3391L63.4129 54.1814L62.4585 55.1987Z" fill="#F0D6B7"/>
<path d="M45.2122 44.0147L46.8666 43.4429L48.2026 44.0794L48.8393 45.4768L49.6033 45.3499L49.7937 44.5872L49.4121 43.1267L49.7937 39.6323L49.4777 37.7269L50.6233 36.3926L53.1056 34.421L52.4056 33.4683L48.9018 35.1852L47.4386 36.3287L46.6106 38.107L45.3386 39.8207L44.957 41.8554L45.2122 44.0147Z" fill="#6D6B6D"/>
<path d="M47.8214 38.044C47.8214 38.044 48.7758 35.6931 52.5941 34.5496C56.4124 33.406 52.7853 33.7239 52.7853 33.7239L48.6486 35.3122L47.0574 36.9028L46.3574 38.1733L47.8214 38.0464" fill="#DCD9D8"/>
<path d="M59.1152 57.292C56.38 57.6863 52.2315 57.3038 50.3606 56.195C49.9111 55.9292 48.8651 54.8543 48.7015 54.9198C46.5858 55.751 44.6051 57.1958 42.8354 58.5593C44.5229 62.1728 45.2055 67.2106 45.324 71.4787C47.2573 72.3809 48.6881 72.8099 52.1888 72.7508C57.1551 72.6672 58.9635 72.3218 61.2926 71.9093C62.0413 71.7653 62.7773 71.562 63.4936 71.3013C63.2914 69.627 62.6112 68.918 62.2003 67.437C61.7263 67.4417 50.0896 67.4196 48.6035 67.0474C48.5988 66.3061 49.5453 66.7225 49.6243 66.2241C49.6835 65.8463 49.1036 65.8179 49.2925 65.2241C49.7744 65.3984 50.028 65.7848 50.5415 65.9299C51.0156 64.9047 50.5352 63.0908 50.6032 62.2312C50.6158 62.0735 50.6822 61.3393 51.0448 61.467C51.3648 61.5806 51.0266 63.4118 51.0614 64.2233C51.0938 64.9709 50.9824 66.0174 51.2897 66.4867C53.9877 66.6815 59.1484 67.0963 61.8906 67.0214C61.8906 67.0214 63.7804 65.549 64.6605 65.2012C64.9821 65.0742 65.2136 64.3392 65.4577 63.7517C66.1277 62.135 66.8308 60.0964 67.1429 58.553C67.214 58.2013 67.406 57.4355 67.3633 57.1224C67.2843 56.5617 66.5243 56.1469 66.1372 55.7999C65.4261 55.1603 64.9742 54.5972 64.23 53.9987C63.9282 54.4434 62.1466 56.8551 59.1144 57.292H59.1152ZM46.1718 39.4831C45.3312 40.4066 45.5065 42.1368 45.6085 43.3679C47.1285 42.4136 49.1455 43.4467 49.1266 45.0666C49.8526 45.0477 49.3975 44.162 49.2664 43.5919C48.8374 41.7283 49.9893 39.7047 49.3185 38.0004C48.0173 38.099 46.9484 38.6313 46.1718 39.4831ZM52.188 34.1204C50.2848 34.659 47.8427 36.0399 47.0629 37.7481C47.6681 37.6605 48.09 37.3538 48.6865 37.3175C48.9125 37.3033 49.2079 37.4121 49.4679 37.3475C49.9846 37.2197 50.4215 36.062 50.811 35.6314C51.2004 35.2008 51.6484 35.0312 51.9613 34.648C52.1619 34.551 52.459 34.5573 52.4708 34.2536C52.3847 34.1637 52.2923 34.0928 52.188 34.1227V34.1204ZM59.0536 56.7762C60.1699 56.5901 60.858 56.0854 61.3115 55.7896C60.2766 56.1737 57.3557 56.2321 55.9637 55.4419C55.1736 54.9939 54.1837 54.2999 53.5343 53.5854C52.7884 52.7644 52.0332 51.8843 51.9944 50.8118C53.4039 52.7644 54.5692 54.4695 57.1298 55.3283C59.0701 55.9781 61.336 55.3354 62.8268 54.2905C63.4454 53.8567 63.9669 52.8622 64.4069 52.2313C66.0455 49.4624 66.6673 46.498 66.4982 43.2299C66.4287 41.8821 66.4318 40.5391 65.9784 39.6321C65.5043 38.6858 63.9037 37.8356 62.9667 38.6929C62.7929 37.7709 63.7457 37.2008 64.8628 37.5328C64.0704 36.5083 63.2321 35.2686 62.0953 34.629C60.1201 33.5163 56.775 32.6795 54.6735 33.7253C52.9773 34.5691 50.6853 35.9658 49.9032 37.7355C50.6332 39.4436 49.6875 41.0083 49.6267 42.7417C49.5951 43.6644 50.062 44.4696 50.1007 45.4743C49.851 45.886 49.0878 45.9365 48.5593 45.9081C48.3815 45.0201 48.0703 44.0209 47.1538 43.9207C45.8565 43.7795 44.9085 44.8505 44.8492 45.9712C44.7797 47.2882 45.8629 49.4703 47.3971 49.3189C47.9905 49.2598 48.1358 48.6667 48.7821 48.673C49.1321 49.3702 48.2417 49.5894 48.1501 50.0878C48.1264 50.2172 48.2243 50.7187 48.2812 50.9553C48.5601 52.1051 49.1811 53.5933 49.7926 54.4687C50.5692 55.5791 51.2787 56.0688 52.9038 56.3196C54.5661 56.5767 57.5327 57.0294 59.0536 56.7762ZM63.7607 66.2674C63.4352 66.8589 65.0421 71.2319 64.0498 71.7634C62.8734 72.2468 50.4301 74.7973 46.0422 72.5418C45.4892 72.2847 44.7173 72.1427 44.5095 71.7011C44.308 71.2737 44.3902 70.4543 44.3404 69.6798C44.2132 67.7019 44.1034 65.7942 43.5812 63.7698C43.3442 62.8613 42.9365 62.0593 42.6513 61.1839C42.3874 60.3724 41.926 59.37 41.8059 58.5601C41.6274 57.3606 42.7587 57.2944 43.4816 56.7762C44.6004 55.9726 45.4781 55.5278 46.6893 54.8046C47.0479 54.5893 48.1295 54.046 48.2528 53.7952C48.342 53.3567 47.4627 51.091 47.1878 50.4648C46.7336 50.3899 46.2996 50.2231 45.9124 49.9746C45.5252 49.7262 45.193 49.4013 44.9361 49.02C44.1666 47.8938 43.6325 45.8103 44.2986 44.2251C44.3507 44.1005 44.6146 43.8545 44.6493 43.6628C44.7283 43.2851 44.5071 42.7835 44.4913 42.3821C44.421 40.3214 44.8405 38.547 46.2294 37.9255C46.7935 35.6826 48.8121 34.9366 50.7146 33.8246C51.4256 33.4082 52.2093 33.1417 53.0184 32.8444C55.9218 31.7773 60.3769 31.9769 62.7865 33.7978C63.8089 34.5691 65.4419 36.1984 66.0258 37.3774C67.5687 40.4909 67.4597 45.6943 66.3805 49.4814C66.2351 49.99 66.025 50.7377 65.7311 51.3481C65.5257 51.7747 64.8897 52.628 64.9663 53.0042C65.0429 53.3804 66.4184 54.4332 66.7123 54.7163C67.2424 55.2266 68.249 55.904 68.3303 56.5475C68.418 57.2328 68.0277 58.1697 67.8302 58.8346C67.1697 61.0427 66.2881 63.7824 65.5391 65.7501L63.7607 66.2674Z" fill="black"/>
<path d="M45.9114 43.5704C45.9114 43.5704 44.5754 39.1234 49.6665 38.4878L49.4753 37.726L45.9786 38.5517L44.957 41.8552L45.2122 44.0145L45.9114 43.5704Z" fill="#DCD9D8"/>
<path d="M47.9482 49.4783L48.7817 48.6724C48.7817 48.6724 49.1578 48.7157 49.221 49.1605C49.2842 49.6053 50.1146 54.3253 52.8552 56.4854C53.1049 56.6825 50.1801 55.4499 50.1801 55.4499L48.1394 52.2733" fill="#F7E4CD"/>
<path d="M59.6584 48.2708C59.6584 48.2708 59.8069 46.3457 60.326 46.494C60.4727 46.5348 60.6024 46.6216 60.696 46.7416C60.7896 46.8616 60.8421 47.0084 60.8459 47.1604C60.8459 47.1604 59.5818 47.975 59.6608 48.2708" fill="#F7E4CD"/>
<path d="M64.9401 41.2191C64.9401 41.2191 63.8918 41.4407 63.7954 42.3626C63.699 43.2845 64.9401 42.5534 65.1313 42.4895" fill="#F7E4CD"/>
<path d="M57.2396 41.2834C57.2396 41.2834 55.8389 41.4743 55.8389 42.3631C55.8389 43.2519 57.43 43.1896 57.8756 42.8079" fill="#F7E4CD"/>
<path d="M48.5857 45.4128C48.5857 45.4128 46.1674 43.9514 45.9122 45.3489C45.657 46.7463 45.085 47.763 46.2946 49.2243L45.4666 48.9688L44.7026 46.9972L44.4482 45.091L45.9114 43.5667L47.5666 43.6936L48.521 44.4553L48.5849 45.4089" fill="#F7E4CD"/>
<path d="M64.4955 36.5826C64.4955 36.5826 62.6499 36.5187 62.5859 38.1709C62.5923 38.3472 62.6356 38.5202 62.7131 38.6788C62.7131 38.6788 64.1771 37.0274 65.0683 37.9162" fill="#F7E4CD"/>
<path d="M56.4139 38.8506C56.4139 38.8506 56.0978 36.3159 53.9307 37.7891C52.5308 38.7425 52.6579 40.0761 52.9123 40.3301C53.1667 40.584 53.098 41.0966 53.2916 40.7449C53.4851 40.3931 53.4211 39.2504 54.1219 38.931C54.8227 38.6116 55.9691 38.2591 56.4131 38.8522" fill="#F7E4CD"/>
<path d="M56.4132 38.8505C54.6751 38.4475 53.8163 39.5752 53.2909 40.7432C52.8217 40.6296 53.0081 39.9924 53.1266 39.6675C53.4371 38.8158 54.6885 37.681 55.7109 37.8347C56.1509 37.901 56.7458 38.3024 56.4132 38.8489" fill="black"/>
<path d="M64.8648 40.8217L64.9438 40.8256C65.3388 41.6379 65.6754 42.4991 66.1699 43.2167C65.8381 43.9864 63.6615 44.6678 63.6947 43.2853C64.1687 43.0803 64.9785 43.2435 65.3957 42.9809C65.1547 42.3201 64.8063 41.757 64.8616 40.8217" fill="black"/>
<path d="M57.3016 40.8457C57.6737 41.5263 57.7946 42.2416 58.3231 42.7558C58.5602 42.9876 59.0239 43.27 58.7972 43.9135C58.7435 44.0657 58.3516 44.404 58.1248 44.4711C57.2984 44.7139 55.3731 44.5207 56.0249 43.4924C56.7083 43.5239 57.6271 43.9356 58.1383 43.4403C57.7432 42.8141 57.0464 41.576 57.304 40.8457" fill="black"/>
<path d="M64.5548 47.7609C63.3104 48.559 61.9231 49.4265 59.884 49.2254C59.4487 48.8469 59.282 48.0054 59.7054 47.4502C59.9259 47.828 59.7844 48.5235 60.4015 48.6284C61.5581 48.8256 62.9051 47.9187 63.7371 47.6032C64.253 46.7357 63.6928 46.4155 63.2275 45.8564C62.2794 44.7113 60.9995 43.2917 61.0454 41.5773C61.4301 41.2989 61.4633 42.0023 61.5194 42.1293C62.0163 43.2902 63.267 44.7744 64.1803 45.7681C64.4039 46.0133 64.7736 46.2475 64.8123 46.41C64.93 46.8832 64.5042 47.4439 64.5532 47.757" fill="black"/>
<path d="M48.1489 46.9184C47.7594 46.696 47.6662 45.7173 47.2087 45.6889C46.5538 45.6495 46.6731 46.9594 46.6762 47.7252C46.2251 47.3167 46.1461 46.0596 46.4772 45.4145C46.1003 45.2292 45.9312 45.618 45.7227 45.7552C45.9913 43.8057 48.5795 44.8506 48.1489 46.9184Z" fill="black"/>
<path d="M65.3467 48.5742C64.7676 49.6783 63.9483 50.8873 62.2482 50.922C62.2142 50.5671 62.1873 50.0261 62.2482 49.8124C63.547 49.6878 64.3497 49.0237 65.3444 48.5742" fill="black"/>
<path d="M57.2039 49.2845C58.2879 49.8539 60.2804 49.9155 61.7538 49.8721C61.8328 50.1938 61.8328 50.5921 61.8328 50.9848C59.9367 51.0795 57.6993 50.6118 57.2031 49.2845" fill="black"/>
<path d="M67.8794 56.6646C67.8794 56.6646 67.6306 58.7269 67.4496 58.3996C66.6304 56.9146 63.625 55.0716 63.625 55.0716L64.4941 53.5464L67.8794 56.6646Z" fill="#2D2F2D"/>
<path d="M57.2182 74.3339C56.9447 73.5525 56.9415 72.7384 56.974 72.4291L55.6064 72.5756L55.753 75.555C56.3554 75.4736 57.4918 75.1154 57.2182 74.3339Z" fill="#DCD9D8" stroke="black" stroke-width="0.531568"/>
<path d="M66.7789 67.2988L63.4316 65.8233C63.31 65.7699 63.2528 65.6189 63.3037 65.4866C63.3547 65.3543 63.4947 65.2906 63.6162 65.3445L66.9636 66.8199C67.0854 66.8737 67.1424 67.0243 67.0914 67.1566C67.0405 67.2889 66.9005 67.3527 66.7789 67.2988Z" fill="#161344"/>
<path d="M67.2701 66.6506L63.541 65.0056C63.4192 64.9519 63.3622 64.8013 63.4132 64.669C63.4641 64.5367 63.6041 64.473 63.7256 64.5269L67.4547 66.1719C67.5765 66.2256 67.6335 66.3762 67.5825 66.5085C67.5315 66.6408 67.3916 66.7045 67.2701 66.6506Z" fill="#161344"/>
<path d="M66.2546 67.9233L63.3614 66.6479C63.2398 66.5944 63.1825 66.4434 63.2335 66.3111C63.2845 66.1787 63.4245 66.115 63.5461 66.1689L66.4393 67.4444C66.5611 67.4982 66.6181 67.6489 66.5671 67.7812C66.5162 67.913 66.3762 67.9768 66.2546 67.9233Z" fill="#161344"/>
<path fill-rule="evenodd" clip-rule="evenodd" d="M68.1939 64.9674C69.0151 64.8883 69.8096 64.577 70.4755 64.0211C72.3196 62.4819 72.4783 59.6509 70.83 57.6979C69.1817 55.7449 66.3507 55.4095 64.5067 56.9487C62.6626 58.488 62.5039 61.319 64.1522 63.272C64.2026 63.3317 64.2541 63.3899 64.3066 63.4466C64.0856 63.438 63.8926 63.5382 63.8292 63.7154C63.7442 63.9527 63.9233 64.2382 64.2293 64.3531L67.5817 65.6123C67.8877 65.7272 68.2045 65.628 68.2895 65.3907C68.3393 65.2515 68.2982 65.0956 68.1939 64.9674Z" fill="#161344"/>
<path d="M67.1531 59.8649C67.2041 59.7197 67.1521 59.5569 67.0355 59.4579C67.0049 59.4321 66.9702 59.4103 66.9314 59.3948C66.8413 59.3581 66.7438 59.3581 66.6583 59.3949C66.5723 59.4317 66.508 59.5007 66.4769 59.5899C66.4455 59.6787 66.4517 59.7767 66.4933 59.8653C66.5352 59.9541 66.6079 60.0232 66.6986 60.0599C66.8848 60.1353 67.0888 60.0478 67.1531 59.8649Z" fill="url(#paint0_linear)"/>
<path d="M67.2941 56.9242C67.3267 56.9089 67.3652 56.9085 67.4 56.9226L68.6593 57.4355L69.0391 56.3493C68.9545 56.3151 68.8695 56.2843 68.7842 56.2554L68.538 56.9598C68.5264 56.9928 68.5022 57.019 68.4702 57.0328C68.4383 57.0466 68.4016 57.0464 68.3681 57.0328L67.2886 56.5931L66.0426 57.178C66.0101 57.1933 65.9713 57.194 65.9364 57.1799L64.888 56.7525C64.8035 56.8107 64.7217 56.8721 64.6416 56.9366L66.0476 57.5096L67.2941 56.9242Z" fill="url(#paint1_linear)"/>
<path d="M63.7632 60.5957L62.9854 60.2799C62.9834 60.3747 62.9842 60.4695 62.9882 60.5643L63.6762 60.8437L63.7632 60.5957Z" fill="url(#paint2_linear)"/>
<path d="M64.3215 61.6524L64.9338 59.9009L64.3646 59.6691L63.752 61.4203L64.3215 61.6524Z" fill="url(#paint3_linear)"/>
<path d="M63.9507 60.0966L63.0457 59.729C63.0325 59.8183 63.0222 59.9083 63.0146 59.998L63.8641 60.3427L63.9507 60.0966Z" fill="url(#paint4_linear)"/>
<path d="M70.2432 63.2232C70.207 63.209 70.1776 63.1797 70.1624 63.1435L69.8354 62.3506L67.328 61.3301C67.3137 61.3242 67.3004 61.3161 67.2891 61.3067C67.2459 61.2698 67.2266 61.2094 67.2452 61.1553L67.924 59.2171C67.9044 59.2038 67.8859 59.1902 67.868 59.175C67.6644 59.0023 67.5733 58.7183 67.6621 58.465C67.7165 58.3101 67.8289 58.1897 67.9785 58.1255C68.1281 58.0614 68.2979 58.0614 68.4557 58.1257C68.6132 58.1897 68.7407 58.3104 68.8136 58.4653C68.887 58.6202 68.8973 58.7909 68.8429 58.9458C68.7886 59.1008 68.6762 59.2212 68.5266 59.2853C68.416 59.3327 68.2943 59.3449 68.1749 59.3221L67.5406 61.1339L69.9784 62.1261C70.0141 62.1408 70.043 62.1695 70.0577 62.2051L70.3845 62.9972L71.1765 63.3102C71.2288 63.2384 71.2788 63.1646 71.3266 63.0887L70.6687 62.8301C70.6322 62.8156 70.6028 62.7869 70.5879 62.7504L70.2609 61.9575L68.4757 61.2308C68.4614 61.2249 68.448 61.2168 68.4368 61.2074C68.3935 61.1705 68.3742 61.1101 68.3929 61.056L69.8714 56.8338C69.6558 56.6854 69.427 56.5525 69.1844 56.4385L68.7651 57.6355C68.7536 57.6683 68.7294 57.6944 68.6976 57.7081C68.6658 57.7218 68.6293 57.7216 68.5959 57.708L67.2714 57.169L66.0312 57.7503C65.9988 57.7655 65.9605 57.7659 65.9258 57.7519L64.3354 57.1045C64.1433 57.2825 63.9676 57.4805 63.8105 57.6965L65.1659 58.2482C65.2355 58.2765 65.2725 58.3547 65.2486 58.423L64.8774 59.4836L65.2868 59.6505L65.1135 60.1451L66.3265 60.6385L66.4743 60.2165C66.4529 60.2022 66.4325 60.1873 66.4128 60.1706C66.3394 60.1085 66.2793 60.0307 66.2376 59.9416C66.1642 59.7867 66.154 59.616 66.2084 59.4611C66.2627 59.3061 66.3751 59.1857 66.5247 59.1216C66.6743 59.0574 66.844 59.0574 67.0018 59.1217C67.3273 59.2539 67.5012 59.6222 67.3891 59.9418C67.3347 60.0968 67.2223 60.2172 67.0727 60.2813C66.9637 60.3279 66.8441 60.3403 66.7264 60.3191L66.5354 60.865C66.5114 60.9333 66.4359 60.9658 66.3661 60.9372L65.0271 60.3924L64.9404 60.6405L67.224 61.5698C67.2936 61.5982 67.3305 61.676 67.3068 61.7447L66.1656 65.0384L66.3863 65.1281L67.538 61.839C67.5619 61.7707 67.6376 61.7382 67.7075 61.7668L69.5546 62.5183C69.5903 62.533 69.6192 62.5617 69.6339 62.5973L69.9606 63.3894L70.8272 63.7305C70.8904 63.6645 70.9513 63.5964 71.01 63.5261L70.2432 63.2232Z" fill="url(#paint5_linear)"/>
<path d="M70.4228 61.6257C70.4584 61.6403 70.4872 61.6689 70.5018 61.7044L70.8276 62.4934L71.4768 62.748C71.5183 62.6717 71.558 62.5938 71.595 62.5138L71.1119 62.3271C71.0969 62.3214 71.0831 62.3127 71.0709 62.3027C71.0533 62.2879 71.0396 62.2689 71.0306 62.2473L70.7047 61.4575L69.6435 61.0261C69.5742 60.9979 69.5375 60.9198 69.5613 60.8518L70.0823 59.3657C70.0615 59.3516 70.041 59.3367 70.0219 59.3207C69.819 59.1486 69.7283 58.8658 69.8169 58.6135C69.8708 58.4594 69.9829 58.3389 70.1323 58.2753C70.2817 58.2112 70.4506 58.2114 70.6079 58.2755C70.765 58.3392 70.8921 58.4594 70.9648 58.6137C71.0379 58.768 71.0481 58.938 70.9942 59.0921C70.8973 59.3681 70.6177 59.5186 70.3336 59.4679L69.856 60.8308L70.8473 61.2339C70.8829 61.2485 70.9117 61.2771 70.9263 61.3126L71.2518 62.1013L71.6974 62.274C71.7166 62.2251 71.7352 62.1756 71.7526 62.1258C72.4129 60.2428 71.6928 58.134 70.1212 56.9122L68.7129 60.9303L70.4228 61.6257Z" fill="url(#paint6_linear)"/>
<path d="M68.6248 58.5436C68.6009 58.4925 68.5664 58.4478 68.5244 58.4123C68.4933 58.386 68.458 58.3646 68.4196 58.3489C68.2329 58.2729 68.0288 58.3604 67.9648 58.5436C67.9007 58.7269 67.9998 58.9377 68.1865 59.0136C68.3729 59.0893 68.577 59.0018 68.6413 58.8189C68.6726 58.7301 68.6667 58.6324 68.6248 58.5436Z" fill="url(#paint7_linear)"/>
<path d="M65.1553 64.0752C65.342 64.1512 65.5461 64.0636 65.6102 63.8803C65.6742 63.6971 65.5749 63.486 65.3885 63.4103C65.2018 63.3343 64.9977 63.4218 64.9336 63.6051C64.8693 63.788 64.9686 63.9992 65.1553 64.0752Z" fill="url(#paint8_linear)"/>
<path d="M66.938 61.8339L64.7763 60.9537L64.6888 61.2039L65.9953 61.7359C66.0653 61.764 66.1021 61.8426 66.0779 61.9113L65.6177 63.2269C65.8636 63.3921 65.9818 63.7061 65.8844 63.9838C65.7721 64.3042 65.4155 64.457 65.0893 64.324C65.0217 64.2964 64.9606 64.2589 64.9075 64.2137C64.7035 64.0406 64.6124 63.7559 64.7014 63.502C64.7988 63.2243 65.0797 63.0728 65.3655 63.1241L65.7823 61.9325L64.6016 61.4517L64.4258 61.9549L64.0156 61.7877L63.6562 62.8147C63.7594 62.9789 63.8721 63.1376 63.9942 63.2895L63.7832 63.8917L63.785 63.8937C63.7381 64.0303 63.8008 64.1817 63.926 64.2326L65.6936 64.9521L65.8373 65.0107L66.938 61.8339Z" fill="url(#paint9_linear)"/>
<path d="M69.7325 63.5914C69.6961 63.5772 69.6663 63.548 69.6514 63.5113L69.3231 62.7145L67.6519 62.0336L66.5391 65.215L66.9477 65.3816L67.9148 65.7757C68.0407 65.8267 68.1815 65.7572 68.2297 65.6201L68.2378 65.597L67.4356 65.2701C67.4213 65.2642 67.4079 65.2561 67.3966 65.2466C67.3532 65.2095 67.3338 65.1488 67.3526 65.0944L67.8533 63.6628C67.8316 63.6482 67.8102 63.6329 67.7905 63.6161C67.5861 63.4426 67.4948 63.1572 67.584 62.9026C67.6383 62.7471 67.7511 62.6255 67.9015 62.5613C68.052 62.4966 68.2221 62.4968 68.3805 62.5614C68.707 62.6944 68.8818 63.0644 68.7693 63.3856C68.672 63.6634 68.3918 63.8152 68.1067 63.7652L67.6492 65.0737L68.3251 65.349L68.4744 64.9215C69.2545 64.7762 69.9659 64.4274 70.5373 63.9092L69.7325 63.5914Z" fill="url(#paint10_linear)"/>
<path d="M68.4181 62.8716C68.3875 62.8459 68.3528 62.8241 68.3141 62.8085C68.2239 62.7719 68.1264 62.7718 68.041 62.8086C67.955 62.8454 67.8906 62.9144 67.8595 63.0035C67.7951 63.1869 67.8945 63.3975 68.0812 63.4734C68.2677 63.5491 68.4717 63.4616 68.5361 63.2787C68.5868 63.1333 68.5348 62.9706 68.4181 62.8716Z" fill="url(#paint11_linear)"/>
<path d="M64.2455 59.3406L64.6561 59.508L64.9855 58.5675L63.6883 58.0396C63.5209 58.3043 63.3797 58.5922 63.2709 58.903C63.2079 59.0835 63.1576 59.2662 63.1191 59.4495L64.0718 59.8374L64.2455 59.3406Z" fill="url(#paint12_linear)"/>
<path d="M67.2254 56.3288C67.258 56.3135 67.2966 56.3126 67.3317 56.327L68.34 56.738L68.5348 56.181C67.3479 55.8533 66.1464 56.0228 65.1729 56.5857L65.9791 56.9146L67.2254 56.3288Z" fill="url(#paint13_linear)"/>
<path d="M63.3865 61.5934L63.5613 61.0951L62.9814 60.8593C63.0452 61.4552 63.2266 62.037 63.5092 62.5703L63.7935 61.7591L63.3865 61.5934Z" fill="url(#paint14_linear)"/>
<path d="M70.6586 58.5825C70.628 58.5567 70.593 58.5352 70.5545 58.5194C70.4641 58.4824 70.3669 58.4827 70.2812 58.5192C70.1951 58.556 70.1308 58.625 70.0997 58.7142C70.0353 58.8976 70.1347 59.1082 70.3214 59.1842C70.5079 59.2599 70.712 59.1724 70.7763 58.9894C70.8273 58.8438 70.7753 58.681 70.6586 58.5825Z" fill="url(#paint15_linear)"/>
<path d="M56.9973 50.3474C57.747 52.2259 60.3234 52.0099 62.4968 51.9578C62.4004 52.2015 62.1934 52.4901 61.9359 52.5942C61.2391 52.8773 59.3192 53.0919 58.3522 52.5792C57.7391 52.2535 57.3457 51.5185 57.0091 51.0879C56.8464 50.8797 56.0389 50.3482 56.9965 50.3474" fill="black"/>
<path d="M55.4781 49.767C55.5619 49.655 56.0225 49.4862 56.6632 49.7961C56.6632 49.7961 55.8992 49.9231 55.9632 51.1936L55.6472 51.1305C55.6472 51.1305 55.3185 49.9775 55.4766 49.767" fill="#F7E4CD"/>
<path d="M48.2285 52.7367L48.2791 54.3597C48.2791 54.3597 50.1333 57.0142 54.5624 57.5481C56.8977 57.8289 59.2292 57.7358 61.2312 56.6665C63.7791 55.3045 64.4704 53.2138 64.4704 53.2138C64.4704 53.2138 61.8229 55.5009 60.8456 55.8952C59.0538 56.6223 56.3613 56.5056 54.7125 56.2808C50.0915 55.6531 48.2285 52.7367 48.2285 52.7367Z" fill="#857C6D" stroke="black" stroke-width="1.06314" stroke-miterlimit="10"/>
<path d="M68.723 66.8921C68.6874 66.542 68.4607 65.7794 67.6896 65.9339C67.2487 66.0222 66.721 66.9039 66.3109 67.0885C64.8343 67.7517 63.3127 66.8771 63.3127 66.8771C63.3127 66.8771 65.0706 64.4844 63.4454 63.8701C62.5432 63.5286 61.9783 64.8645 61.7863 65.4671C61.5106 66.3125 60.2592 67.0814 59.9147 67.2809H57.2667C57.2667 67.2809 56.4952 67.6665 56.0456 70.0112C55.5613 72.5119 56.8759 73.2107 56.8759 73.2107L60.3887 72.6089C60.3887 72.6089 61.2017 72.6002 61.4624 72.6649C62.2983 72.8739 63.7243 73.7217 64.7901 73.5639C67.184 73.2099 67.1974 71.6334 67.1974 71.6334C67.1974 71.6334 67.6224 71.1649 67.6896 70.9701C67.7934 70.6589 67.7934 70.3224 67.6896 70.0112C67.6896 70.0112 68.1944 69.6318 68.354 69.1026C68.4049 68.9478 68.421 68.7836 68.4012 68.6219C68.3814 68.4601 68.3262 68.3046 68.2395 68.1665C68.2395 68.1665 68.8004 67.6476 68.723 66.8921Z" fill="white"/>
<path d="M56.0458 70.4751L56.2412 72.7551L56.9739 73.1126L60.389 72.6085L61.4626 72.6644L63.8881 73.6203C63.8881 73.6203 66.846 73.1802 66.9361 72.5572C67.0262 71.9342 64.137 72.0588 64.137 72.0588C64.137 72.0588 65.1553 72.3671 64.3519 72.7551C63.4686 73.1818 62.4676 71.778 61.3955 71.823C59.6858 71.8947 58.1563 70.8443 58.1563 70.8443C58.1563 70.8443 59.2206 72.509 58.5368 72.6644C55.3545 73.3876 56.0458 70.4751 56.0458 70.4751Z" fill="#DCD9D8"/>
<path d="M57.707 67.0184C59.5631 67.4475 59.4667 68.3568 59.4667 68.3568C59.4667 68.3568 59.6437 67.9135 59.7717 67.6352C59.8597 67.4339 59.9367 67.228 60.0024 67.0184H57.707Z" fill="#DCD9D8"/>
<path d="M68.5802 66.718C68.5802 66.718 68.2357 67.4333 67.3461 68.1234C66.2401 68.9806 64.502 69.0169 64.502 69.0169C64.502 69.0169 66.2361 69.3252 67.5002 68.9025C68.9958 68.401 68.5802 66.718 68.5802 66.718Z" fill="#DCD9D8"/>
<path d="M59.4668 68.3549C59.4795 68.1172 59.5184 67.8815 59.5829 67.6523C59.6174 67.5334 59.6591 67.4167 59.7078 67.3029C59.7315 67.2445 59.7591 67.187 59.7868 67.1294C59.8018 67.101 59.8176 67.0718 59.835 67.0427C59.8429 67.0285 59.8516 67.0135 59.8618 66.9985C59.8722 66.9811 59.8838 66.9645 59.8966 66.9488C59.9573 66.8912 60.0386 66.86 60.1223 66.8622C60.2061 66.8643 60.2856 66.8996 60.3434 66.9602C60.4011 67.0209 60.4323 67.102 60.4302 67.1856C60.428 67.2692 60.3927 67.3486 60.3319 67.4062C60.3319 67.4062 60.3169 67.4125 60.3074 67.4173L60.2774 67.4362C60.2568 67.4488 60.2363 67.4638 60.215 67.478C60.1739 67.5087 60.132 67.5411 60.0925 67.5758C60.0087 67.6463 59.9295 67.7222 59.8555 67.8029C59.7806 67.8859 59.7104 67.9731 59.6453 68.0639C59.5808 68.1578 59.5212 68.2549 59.4668 68.3549Z" fill="black"/>
<path d="M68.2305 68.4385C68.2305 68.4385 67.8861 69 66.9941 69.6908C65.888 70.5489 64.334 70.6466 64.334 70.6466C64.334 70.6466 65.9718 70.9542 67.1845 70.4006C68.5821 69.7642 68.2305 68.4385 68.2305 68.4385Z" fill="#DCD9D8"/>
<path d="M67.572 70.2069C67.572 70.2069 67.497 70.6627 66.8096 71.1186C65.6427 71.893 64.1377 72.0602 64.1377 72.0602C64.1377 72.0602 65.8102 72.4301 67.0001 71.8291C67.7577 71.4451 67.572 70.2069 67.572 70.2069Z" fill="#DCD9D8"/>
<path d="M62.665 64.1409C62.665 64.1409 63.3864 64.2986 63.3706 65.1811C63.3516 66.2852 63.0648 66.9366 63.0648 66.9366C63.0648 66.9366 64.8116 65.1456 63.9852 64.1417C63.3437 63.3625 62.665 64.1409 62.665 64.1409Z" fill="#DCD9D8"/>
<path d="M68.7238 66.8921C68.6883 66.542 68.4615 65.7794 67.6904 65.9339C67.2496 66.0222 66.7218 66.9039 66.3118 67.0885C64.8352 67.7517 63.3136 66.8771 63.3136 66.8771C63.3136 66.8771 65.0714 64.4844 63.4463 63.8701C62.544 63.5286 61.9792 64.8645 61.7872 65.4671C61.5114 66.3125 60.26 67.0814 59.9155 67.2809L57.4141 67.0885C57.4141 67.0885 56.6425 67.3983 56.193 69.7429C55.7087 72.2437 56.9256 72.8688 56.9256 72.8688L60.3896 72.6089C60.3896 72.6089 61.2025 72.6002 61.4633 72.6649C62.2991 72.8739 63.7252 73.7217 64.7909 73.5639C67.1848 73.2099 67.1982 71.6334 67.1982 71.6334C67.1982 71.6334 67.6233 71.1649 67.6904 70.9701C67.7943 70.6589 67.7943 70.3224 67.6904 70.0112C67.6904 70.0112 68.1953 69.6318 68.3549 69.1026C68.4058 68.9478 68.4219 68.7836 68.4021 68.6219C68.3823 68.4601 68.3271 68.3046 68.2403 68.1665C68.2403 68.1665 68.8013 67.6476 68.7238 66.8921Z" stroke="black" stroke-width="0.531568" stroke-miterlimit="10"/>
<path d="M64.5 69.0163L64.7481 69.0415L64.8713 69.0533L64.9329 69.0596H64.9954C65.1597 69.0662 65.3243 69.0641 65.4884 69.0533C65.5674 69.047 65.6511 69.0431 65.7317 69.0344L65.9687 68.9958C66.0486 68.984 66.1278 68.9674 66.2057 68.9461C66.2847 68.9248 66.3637 68.9122 66.4388 68.8838L66.6663 68.8089L66.8867 68.7182C67.1735 68.5914 67.4438 68.4304 67.6918 68.2387C67.7503 68.189 67.8111 68.1425 67.8656 68.0904C67.8941 68.0652 67.9209 68.0399 67.9446 68.0115C67.9581 67.9989 67.9715 67.9855 67.9825 67.9729C67.9929 67.9624 68.0027 67.9514 68.0118 67.9398C68.0611 67.8735 68.1342 67.8288 68.2158 67.815C68.2974 67.8013 68.3811 67.8195 68.4495 67.8659C68.518 67.9123 68.5658 67.9833 68.583 68.0641C68.6002 68.1449 68.5855 68.2292 68.5419 68.2994C68.5271 68.3208 68.5099 68.3404 68.4906 68.3578L68.4582 68.3869C68.4329 68.409 68.4155 68.4216 68.3957 68.4374C68.376 68.4532 68.3578 68.4658 68.3389 68.4792C68.3009 68.5068 68.2599 68.5336 68.2251 68.5581C68.1461 68.6093 68.071 68.6527 67.9936 68.6984C67.838 68.7836 67.6773 68.8592 67.5125 68.9248C67.3496 68.9891 67.1832 69.0439 67.0139 69.0888L66.7603 69.1488L66.5036 69.1906C66.419 69.2071 66.3321 69.2079 66.2468 69.2166C66.1615 69.2258 66.0758 69.2303 65.99 69.23H65.7349C65.6495 69.226 65.565 69.2166 65.4805 69.2103C65.3128 69.195 65.1461 69.1705 64.9811 69.1369L64.9187 69.1259L64.8579 69.1101L64.737 69.0778L64.5 69.0163Z" fill="black"/>
<path d="M64.3359 70.6467L64.5548 70.6617C64.6283 70.6617 64.7002 70.6735 64.7728 70.6703C64.9176 70.6723 65.0624 70.6668 65.2066 70.6538C65.4908 70.6301 65.7718 70.5781 66.0456 70.4984C66.3159 70.4229 66.578 70.3203 66.8278 70.1924C66.9518 70.1301 67.0711 70.0607 67.1864 69.9882C67.2433 69.9495 67.3002 69.9093 67.3539 69.873C67.3808 69.8533 67.4069 69.8336 67.4329 69.8131C67.459 69.7926 67.459 69.7934 67.4701 69.7831C67.4807 69.7749 67.4907 69.766 67.5001 69.7563C67.5568 69.6926 67.6365 69.654 67.7217 69.649C67.8069 69.644 67.8906 69.6729 67.9544 69.7295C68.0182 69.7861 68.0569 69.8656 68.0619 69.9507C68.0669 70.0357 68.0379 70.1193 67.9812 70.183C67.9627 70.2043 67.9414 70.2231 67.918 70.239L67.8793 70.2642C67.8548 70.28 67.8382 70.2886 67.8193 70.2997L67.7648 70.3297C67.7284 70.3486 67.6929 70.3675 67.6565 70.3841C67.5854 70.4196 67.5127 70.4495 67.4416 70.4811C67.2963 70.5386 67.1509 70.5915 67.0024 70.6388C66.7098 70.7269 66.4091 70.7856 66.1049 70.8139C65.8057 70.8439 65.5042 70.8439 65.205 70.8139C65.0573 70.8004 64.9104 70.7794 64.7649 70.7508C64.6922 70.7386 64.6202 70.7225 64.5493 70.7027L64.3359 70.6467Z" fill="black"/>
<path d="M67.2742 72.0127L67.2544 72.0285L67.2394 72.038L67.2118 72.0561L67.1596 72.0861C67.1241 72.1066 67.0909 72.1208 67.0569 72.1381C66.9909 72.1679 66.9234 72.1942 66.8547 72.217C66.7224 72.2625 66.5869 72.2981 66.4494 72.3234C66.1847 72.3688 65.9157 72.3847 65.6475 72.3708C65.5811 72.366 65.5155 72.3637 65.4508 72.3581L65.2564 72.3345L65.16 72.3219L65.0644 72.3037L64.874 72.2674C64.7484 72.2398 64.6252 72.2051 64.5011 72.1744L64.1377 72.0585L64.5153 72.0971C64.6417 72.101 64.7666 72.1097 64.8914 72.1105H65.0786H65.1719L65.2643 72.1034L65.4484 72.0876L65.6301 72.0608C65.8664 72.0247 66.0978 71.9617 66.3198 71.8731C66.4251 71.83 66.527 71.7792 66.6248 71.7209C66.673 71.6925 66.7172 71.661 66.7599 71.6302C66.7788 71.6137 66.8017 71.5987 66.8183 71.5821L66.8436 71.5593L66.8539 71.5482C66.8849 71.5201 66.9212 71.4983 66.9607 71.4843C67.0002 71.4703 67.0421 71.4642 67.0839 71.4665C67.1258 71.4688 67.1668 71.4794 67.2045 71.4977C67.2422 71.5159 67.2759 71.5415 67.3036 71.5729C67.3314 71.6043 67.3525 71.6409 67.366 71.6805C67.3794 71.7201 67.3848 71.7621 67.3818 71.8038C67.3789 71.8455 67.3676 71.8863 67.3487 71.9236C67.3298 71.961 67.3037 71.9942 67.2718 72.0214L67.2742 72.0127Z" fill="black"/>
<path d="M58.1572 70.8453C58.2726 71.1324 58.5056 71.339 58.7506 71.5038C59.0018 71.6651 59.2706 71.7974 59.5517 71.8982C59.8324 72.0009 60.1192 72.0865 60.4105 72.1545C60.6988 72.2239 60.9998 72.283 61.2795 72.3217H61.2835C61.3673 72.3328 61.4432 72.3768 61.4945 72.4439C61.5459 72.511 61.5684 72.5956 61.5572 72.6793C61.546 72.763 61.502 72.8388 61.4348 72.89C61.3676 72.9413 61.2827 72.9638 61.1989 72.9526C61.1819 72.9504 61.165 72.9472 61.1484 72.9431C60.846 72.8468 60.5488 72.735 60.258 72.6079C59.9685 72.484 59.6867 72.3429 59.4142 72.1852C59.1399 72.0303 58.8839 71.8451 58.651 71.6332C58.5354 71.5255 58.4321 71.4054 58.3429 71.2751C58.2533 71.1454 58.1902 70.9994 58.1572 70.8453Z" fill="black"/>
<path d="M55.7169 75.3528C55.4043 76.3296 51.777 75.9877 50.0023 75.6947C48.8692 72.9204 48.7161 68.9381 48.7813 67.2937C50.8978 67.1146 55.1504 66.8639 55.2285 67.2937C55.3262 67.831 55.5216 74.1317 55.7169 75.3528Z" fill="white" stroke="black" stroke-width="0.531568"/>
<path d="M55.1756 74.7119C55.1408 74.414 54.774 69.3123 54.448 67.3107H55.0687C55.1628 69.8243 55.545 74.9447 55.4581 75.3171C55.3712 75.6895 54.4036 75.8865 54.0342 75.7934C54.3602 75.6538 55.2104 75.0099 55.1756 74.7119Z" fill="#DCD9D8"/>
<path d="M43.3451 46.196C43.4157 46.3726 44.6995 48.1834 45.3325 49.0667C45.4208 48.89 45.2 48.2717 44.8908 47.9184C44.5817 47.5651 44.3609 46.9468 44.3609 46.1076C44.3609 45.4363 45.0086 44.6208 45.3325 44.2969C46.0745 42.6716 48.0265 39.9393 48.9098 38.7763C49.8815 38.7321 52.0456 38.0254 52.5755 37.8046C53.1055 37.5838 57.4337 36.2589 58.317 36.2147C59.2003 36.1705 63.7051 35.2431 64.5884 35.3314C65.2951 35.402 65.0889 36.5386 64.8976 37.098L65.3834 37.0097C65.6484 36.936 66.3638 36.7447 67.1058 36.568C68.0333 36.3472 68.4308 35.6405 68.4308 35.2431C68.4308 34.9251 67.7536 34.6689 67.415 34.5806C66.8408 34.507 65.6572 34.3333 65.5159 34.2273C65.3745 34.1213 65.192 34.0359 65.1184 34.0064C65.0448 34.0212 64.8711 34.0418 64.7651 34.0064C64.4118 33.7856 64.4118 33.8739 63.8376 33.6973C63.5285 33.2998 62.5715 32.2104 61.9827 31.7982C61.7913 31.7246 61.3909 31.5067 61.3202 31.224C60.9669 30.0758 60.5694 29.7666 60.0836 29.2366C59.6949 28.8126 59.0972 28.4711 58.847 28.3533C58.6997 28.3828 58.317 28.3975 57.9637 28.2208C57.6103 28.0442 57.3748 28 57.3012 28C56.7418 28 55.4551 28.0177 54.7838 28.0883C53.9447 28.1767 54.5188 28.3092 51.4272 28.8391C48.4947 29.2278 47.7616 30.8854 47.7616 31.6657C47.5996 31.9748 47.0373 32.6197 46.0833 32.7257C44.4492 32.7698 44.14 33.6973 43.8309 34.1389C43.5836 34.4923 42.7562 36.6416 42.3734 37.6721C42.2851 37.9666 41.9936 38.6526 41.5343 39.0412C41.075 39.4299 40.9896 39.7626 41.0043 39.8804C40.9896 39.9834 41.0043 40.3397 41.181 40.9403C41.4018 41.6911 41.181 42.2211 41.181 42.4861C41.181 42.7511 41.446 43.0161 41.5785 43.5902C41.6845 44.0496 41.7993 44.3116 41.8434 44.3852C42.0937 44.7091 42.6208 45.3833 42.7267 45.4893C42.8592 45.6218 43.2567 45.9751 43.3451 46.196Z" fill="#0D0D0D" stroke="black" stroke-width="0.531568"/>
<path d="M64.0586 35.3314C64.118 35.3232 64.1805 35.3147 64.2458 35.306C65.382 35.2125 65.1939 36.4401 64.9419 37.098C65.3836 37.0096 67.7685 36.303 67.901 36.1705C68.0334 36.038 68.0776 35.9497 68.1218 35.8614V35.8613C68.166 35.773 68.3868 35.1989 67.9893 35.0222C67.6874 34.888 65.4763 35.1414 64.2458 35.306C64.187 35.3108 64.1247 35.3192 64.0586 35.3314Z" fill="black"/>
<path d="M64.0586 35.3314C65.2364 35.1694 67.6713 34.8809 67.9893 35.0222C68.3868 35.1989 68.166 35.773 68.1218 35.8613C68.0776 35.9497 68.0335 36.038 67.901 36.1705C67.7685 36.303 65.3836 37.0096 64.9419 37.098C65.2069 36.406 65.4013 35.084 64.0586 35.3314Z" stroke="black" stroke-width="0.531568"/>
<path d="M54.2982 35.2429C51.6836 36.3736 49.5872 38.0695 48.8659 38.7761L45.7588 43.3103C45.9207 42.898 46.5251 40.3042 46.8785 39.8803C47.3201 39.3503 49.7934 36.7445 50.5442 36.3471C51.295 35.9496 52.7524 35.0221 54.6073 34.0063C56.4623 32.9905 59.7746 32.2839 60.9671 32.2839C61.9211 32.2839 63.1312 33.1966 63.617 33.653C60.7463 32.858 57.5664 33.8296 54.2982 35.2429Z" fill="#202020" stroke="black" stroke-width="0.531568"/>
<path d="M45.8177 36.8768C44.0511 38.7141 42.5495 42.7949 42.0195 44.6057C42.1667 44.856 42.5142 45.383 42.7262 45.489C42.9912 45.6215 43.1678 46.0632 43.3003 46.1956C43.4328 46.3281 45.2436 49.1989 45.3319 49.1105C45.4202 49.0222 45.4202 48.8014 44.9344 48.0064C43.9628 46.3281 44.5811 45.489 44.6253 45.224C44.6606 45.012 45.1111 44.4585 45.3319 44.2082C45.5527 43.796 46.0032 42.9186 46.0385 42.7066C46.0827 42.4416 46.436 40.5425 46.7894 39.9684C47.1427 39.3942 49.6159 37.1418 49.8367 36.8768C50.0134 36.6648 50.6759 36.2585 50.985 36.0819C51.5297 35.758 52.6721 35.0837 52.8841 34.9777C53.1491 34.8453 53.7674 34.5803 54.7832 33.9178C55.8432 33.3878 59.818 32.2837 61.0105 32.2395C61.9644 32.2042 63.1451 33.167 63.6162 33.6528H63.7929C63.2923 33.0345 62.2206 31.789 61.9379 31.7537C61.514 31.7184 61.2607 31.2384 61.1871 31.0029C60.9958 30.8115 59.7297 30.4729 56.1965 30.6496C51.78 30.8704 48.026 34.5803 45.8177 36.8768Z" fill="#393939" stroke="black" stroke-width="0.531568"/>
<path d="M51.7656 74.4079C52.0102 74.3248 52.0445 73.1346 52.0311 72.5498L52.4763 72.4307C52.4756 72.8114 52.3602 73.8942 52.3026 74.388C52.0216 74.4293 51.5209 74.4911 51.7656 74.4079Z" fill="#757F3F" stroke="black" stroke-width="0.15947"/>
<path d="M51.282 69.4706C50.7945 69.0731 50.5226 69.4348 50.4475 69.6654C50.4432 69.481 50.4952 69.0757 50.7379 68.9293C50.9806 68.7828 51.2627 68.9903 51.3734 69.1123C51.8086 68.4093 52.2679 68.7375 52.4431 68.9894C52.8385 68.366 53.2187 68.7947 53.3416 69.0413C53.1945 68.8344 52.8729 68.9047 52.7767 68.9689C52.5173 69.1472 52.4255 69.4175 52.1758 69.7687C51.9761 70.0497 51.8585 70.6334 51.8246 70.8901C51.7738 70.8461 51.8683 70.3837 51.9219 70.158C51.9036 70.103 51.7499 69.8885 51.282 69.4706Z" fill="#F79329" stroke="black" stroke-width="0.106314"/>
<path d="M52.0415 72.5119C50.3863 72.5848 50.2134 70.9504 50.3864 69.8223C50.6796 68.6081 51.5401 69.5285 51.9337 70.1404L51.8347 70.8567C51.9037 70.443 52.1657 69.4912 52.6623 68.9947C53.1589 68.4981 53.6196 69.0209 53.6968 69.6154C53.8802 71.0279 53.7916 72.4349 52.0415 72.5119Z" fill="#ED6C30" stroke="black" stroke-width="0.15947"/>
<path d="M52.736 73.4183C52.0206 73.9549 51.2277 74.7539 51.8354 74.8504C53.4632 75.1089 54.2305 72.4751 54.2455 72.4751C54.2641 72.4347 54.0467 72.4351 52.736 73.4183Z" fill="#757F3F" stroke="black" stroke-width="0.15947"/>
<path d="M52.1456 73.9759C51.3813 74.6525 51.6745 74.8259 51.9166 74.8281C51.9166 74.6627 51.9166 74.7327 52.4465 74.0586C52.8705 73.5193 53.7387 72.8762 54.1379 72.6303C54.175 72.607 54.2381 72.4815 54.167 72.509C54.0144 72.5681 53.101 73.1302 52.1456 73.9759Z" fill="#BDCF46"/>
<path d="M51.954 69.8251C51.9729 69.7142 52.1605 69.3011 52.252 69.1085C51.9277 68.7486 51.6409 69.0161 51.5381 69.1948C51.6009 69.2282 51.8415 69.6289 51.954 69.8251Z" fill="#ED6C30"/>
<defs>
<filter id="filter0_ddd" x="5.33301" y="0.33333" width="107" height="107" filterUnits="userSpaceOnUse" color-interpolation-filters="sRGB">
<feFlood flood-opacity="0" result="BackgroundImageFix"/>
<feColorMatrix in="SourceAlpha" type="matrix" values="0 0 0 0 0 0 0 0 0 0 0 0 0 0 0 0 0 0 127 0"/>
<feOffset dy="1.33333"/>
<feGaussianBlur stdDeviation="8"/>
<feColorMatrix type="matrix" values="0 0 0 0 0 0 0 0 0 0 0 0 0 0 0 0 0 0 0.04 0"/>
<feBlend mode="normal" in2="BackgroundImageFix" result="effect1_dropShadow"/>
<feColorMatrix in="SourceAlpha" type="matrix" values="0 0 0 0 0 0 0 0 0 0 0 0 0 0 0 0 0 0 127 0"/>
<feOffset dy="5.33333"/>
<feGaussianBlur stdDeviation="5.33333"/>
<feColorMatrix type="matrix" values="0 0 0 0 0 0 0 0 0 0 0 0 0 0 0 0 0 0 0.08 0"/>
<feBlend mode="normal" in2="effect1_dropShadow" result="effect2_dropShadow"/>
<feColorMatrix in="SourceAlpha" type="matrix" values="0 0 0 0 0 0 0 0 0 0 0 0 0 0 0 0 0 0 127 0"/>
<feOffset dy="4"/>
<feGaussianBlur stdDeviation="4"/>
<feColorMatrix type="matrix" values="0 0 0 0 0 0 0 0 0 0 0 0 0 0 0 0 0 0 0.1 0"/>
<feBlend mode="normal" in2="effect2_dropShadow" result="effect3_dropShadow"/>
<feBlend mode="normal" in="SourceGraphic" in2="effect3_dropShadow" result="shape"/>
</filter>
<linearGradient id="paint0_linear" x1="65.1207" y1="64.4993" x2="68.4758" y2="56.3392" gradientUnits="userSpaceOnUse">
<stop offset="0.1763" stop-color="#FFD400"/>
<stop offset="0.7117" stop-color="#FFE72E"/>
<stop offset="1" stop-color="#FFEF42"/>
</linearGradient>
<linearGradient id="paint1_linear" x1="64.191" y1="64.1305" x2="67.5701" y2="55.9254" gradientUnits="userSpaceOnUse">
<stop offset="0.1763" stop-color="#FFD400"/>
<stop offset="0.7117" stop-color="#FFE72E"/>
<stop offset="1" stop-color="#FFEF42"/>
</linearGradient>
<linearGradient id="paint2_linear" x1="62.3029" y1="63.4512" x2="65.6321" y2="55.3401" gradientUnits="userSpaceOnUse">
<stop offset="0.1763" stop-color="#FFD400"/>
<stop offset="0.7117" stop-color="#FFE72E"/>
<stop offset="1" stop-color="#FFEF42"/>
</linearGradient>
<linearGradient id="paint3_linear" x1="63.2184" y1="63.8348" x2="66.5964" y2="55.631" gradientUnits="userSpaceOnUse">
<stop offset="0.1763" stop-color="#FFD400"/>
<stop offset="0.7117" stop-color="#FFE72E"/>
<stop offset="1" stop-color="#FFEF42"/>
</linearGradient>
<linearGradient id="paint4_linear" x1="62.2522" y1="63.4168" x2="65.5806" y2="55.3066" gradientUnits="userSpaceOnUse">
<stop offset="0.1763" stop-color="#FFD400"/>
<stop offset="0.7117" stop-color="#FFE72E"/>
<stop offset="1" stop-color="#FFEF42"/>
</linearGradient>
<linearGradient id="paint5_linear" x1="65.9914" y1="64.8377" x2="69.3474" y2="56.6796" gradientUnits="userSpaceOnUse">
<stop offset="0.1763" stop-color="#FFD400"/>
<stop offset="0.7117" stop-color="#FFE72E"/>
<stop offset="1" stop-color="#FFEF42"/>
</linearGradient>
<linearGradient id="paint6_linear" x1="68.7" y1="65.8184" x2="72.0413" y2="57.6899" gradientUnits="userSpaceOnUse">
<stop offset="0.1763" stop-color="#FFD400"/>
<stop offset="0.7117" stop-color="#FFE72E"/>
<stop offset="1" stop-color="#FFEF42"/>
</linearGradient>
<linearGradient id="paint7_linear" x1="66.1152" y1="64.844" x2="69.4693" y2="56.6849" gradientUnits="userSpaceOnUse">
<stop offset="0.1763" stop-color="#FFD400"/>
<stop offset="0.7117" stop-color="#FFE72E"/>
<stop offset="1" stop-color="#FFEF42"/>
</linearGradient>
<linearGradient id="paint8_linear" x1="64.9896" y1="64.5379" x2="68.3442" y2="56.3783" gradientUnits="userSpaceOnUse">
<stop offset="0.1763" stop-color="#FFD400"/>
<stop offset="0.7117" stop-color="#FFE72E"/>
<stop offset="1" stop-color="#FFEF42"/>
</linearGradient>
<linearGradient id="paint9_linear" x1="64.5842" y1="64.365" x2="67.9491" y2="56.1882" gradientUnits="userSpaceOnUse">
<stop offset="0.1763" stop-color="#FFD400"/>
<stop offset="0.7117" stop-color="#FFE72E"/>
<stop offset="1" stop-color="#FFEF42"/>
</linearGradient>
<linearGradient id="paint10_linear" x1="68.1147" y1="65.7364" x2="71.4902" y2="57.5392" gradientUnits="userSpaceOnUse">
<stop offset="0.1763" stop-color="#FFD400"/>
<stop offset="0.7117" stop-color="#FFE72E"/>
<stop offset="1" stop-color="#FFEF42"/>
</linearGradient>
<linearGradient id="paint11_linear" x1="67.3904" y1="65.4136" x2="70.7429" y2="57.2558" gradientUnits="userSpaceOnUse">
<stop offset="0.1763" stop-color="#FFD400"/>
<stop offset="0.7117" stop-color="#FFE72E"/>
<stop offset="1" stop-color="#FFEF42"/>
</linearGradient>
<linearGradient id="paint12_linear" x1="62.4378" y1="63.5084" x2="65.8078" y2="55.3194" gradientUnits="userSpaceOnUse">
<stop offset="0.1763" stop-color="#FFD400"/>
<stop offset="0.7117" stop-color="#FFE72E"/>
<stop offset="1" stop-color="#FFEF42"/>
</linearGradient>
<linearGradient id="paint13_linear" x1="64.1189" y1="64.1086" x2="67.501" y2="55.898" gradientUnits="userSpaceOnUse">
<stop offset="0.1763" stop-color="#FFD400"/>
<stop offset="0.7117" stop-color="#FFE72E"/>
<stop offset="1" stop-color="#FFEF42"/>
</linearGradient>
<linearGradient id="paint14_linear" x1="62.5817" y1="63.582" x2="65.913" y2="55.4744" gradientUnits="userSpaceOnUse">
<stop offset="0.1763" stop-color="#FFD400"/>
<stop offset="0.7117" stop-color="#FFE72E"/>
<stop offset="1" stop-color="#FFEF42"/>
</linearGradient>
<linearGradient id="paint15_linear" x1="68.0536" y1="65.5669" x2="71.4077" y2="57.4072" gradientUnits="userSpaceOnUse">
<stop offset="0.1763" stop-color="#FFD400"/>
<stop offset="0.7117" stop-color="#FFE72E"/>
<stop offset="1" stop-color="#FFEF42"/>
</linearGradient>
</defs>
</svg>
