<svg width="277" height="272" viewBox="0 0 277 272" fill="none" xmlns="http://www.w3.org/2000/svg">
<path d="M254.178 7.5022H23.7953V161.463H254.178V7.5022Z" fill="#E0E0E0"/>
<path d="M247.196 14.3872H16.8127V168.348H247.196V14.3872Z" fill="#EBEBEB"/>
<path d="M30.9025 215.238C33.1667 214.171 35.7112 213.86 38.164 214.349C39.487 214.57 40.8575 214.945 41.7236 215.959C42.5898 216.972 42.7915 218.701 41.7592 219.535C41.0987 219.994 40.2986 220.205 39.4989 220.132C37.5767 220.132 35.4469 219.774 33.9163 220.93C33.0382 221.592 32.4568 222.719 31.4127 223.023C30.8915 223.146 30.3447 223.096 29.8538 222.881C29.363 222.667 28.9546 222.298 28.6896 221.83C28.1884 220.864 28.0778 219.741 28.3811 218.695C28.5037 217.961 28.7956 217.266 29.2334 216.666C29.6712 216.065 30.2428 215.576 30.9025 215.238Z" fill="#EBEBEB"/>
<path d="M25.8422 205.444C27.1948 207.381 29.8171 206.737 31.0333 205.557C32.2495 204.377 32.7656 202.654 33.2343 201.021C34.3081 197.283 35.3879 193.367 34.587 189.557C34.396 188.404 33.8932 187.326 33.1334 186.44C32.7467 186.005 32.2536 185.68 31.7031 185.496C31.1526 185.312 30.5638 185.276 29.9951 185.391C28.6721 185.742 27.8474 187.048 27.2542 188.288C25.5001 191.946 24.5819 195.952 24.5667 200.013C24.5667 201.903 24.7802 203.882 25.8422 205.444Z" fill="#EBEBEB"/>
<path d="M22.1341 208.198C23.5995 206.451 23.8783 203.9 23.2257 201.706C22.484 199.53 21.16 197.602 19.3992 196.132C17.4005 194.342 15.0728 192.961 12.5469 192.067C11.5687 191.669 10.516 191.49 9.46196 191.542C8.93606 191.574 8.42573 191.734 7.97507 192.008C7.5244 192.282 7.14695 192.663 6.87532 193.116C6.15747 194.499 6.84566 196.174 7.59317 197.539C8.91095 199.95 10.4166 202.252 12.0961 204.424C13.4428 206.171 14.9912 207.899 17.0439 208.686C19.0966 209.473 21.2383 209.384 22.3299 207.953" fill="#EBEBEB"/>
<path d="M25.7473 234.653C25.8242 234.365 25.866 234.068 25.8719 233.77C25.9371 233.126 26.0142 232.322 26.1032 231.386C26.2239 230.201 26.4041 229.023 26.6431 227.857C26.9579 226.434 27.3844 225.039 27.9186 223.684C28.4424 222.334 29.1556 221.065 30.0366 219.917C30.7499 218.982 31.662 218.218 32.7063 217.682C33.417 217.331 34.1775 217.094 34.9607 216.978C35.2547 216.965 35.5467 216.923 35.8328 216.853C35.537 216.822 35.2387 216.822 34.9429 216.853C34.1229 216.909 33.3194 217.111 32.5698 217.449C31.4685 217.972 30.5021 218.743 29.7459 219.702C28.8306 220.868 28.0928 222.164 27.5567 223.547C27.0092 224.917 26.5843 226.334 26.2871 227.78C26.0601 228.961 25.9036 230.156 25.8185 231.356C25.7473 232.375 25.7176 233.204 25.6998 233.74C25.6841 234.045 25.7 234.351 25.7473 234.653Z" fill="#E0E0E0"/>
<path d="M25.9131 232.81C25.9312 232.676 25.9312 232.54 25.9131 232.405V231.213C25.9131 230.194 25.9131 228.727 25.9606 226.915C26.0555 223.291 26.364 219.386 26.9632 213.884C27.5564 208.716 28.2921 202.695 29.0989 198.779C29.271 197.891 29.443 197.092 29.6091 196.395C29.7752 195.697 29.8998 195.083 30.0244 194.606C30.149 194.129 30.2261 193.772 30.2973 193.468C30.3372 193.338 30.3611 193.204 30.3685 193.068C30.3057 193.189 30.2578 193.317 30.2261 193.45C30.1371 193.742 30.0303 194.117 29.8939 194.57C29.7574 195.023 29.5854 195.661 29.4133 196.359C29.2413 197.056 29.0396 197.855 28.8201 198.743C27.8252 203.374 27.0747 208.053 26.5716 212.763C25.9783 218.277 25.6995 223.297 25.6758 226.927C25.6758 228.745 25.6758 230.217 25.741 231.231C25.741 231.708 25.7944 232.095 25.8122 232.423C25.8302 232.556 25.8641 232.686 25.9131 232.81Z" fill="#E0E0E0"/>
<path d="M25.9371 223.13C25.9733 222.723 25.9733 222.314 25.9371 221.908C25.8897 221.127 25.7829 219.994 25.5634 218.605C25.2988 216.979 24.9423 215.369 24.4955 213.783C23.969 211.834 23.2987 209.927 22.4903 208.078C21.0968 204.684 19.1051 201.57 16.611 198.887C16.1749 198.427 15.7113 197.995 15.2228 197.593C15.0092 197.414 14.8253 197.229 14.6295 197.086L14.0956 196.717C13.7734 196.468 13.4299 196.249 13.0692 196.061C14.2494 196.981 15.3691 197.976 16.4212 199.042C18.8412 201.752 20.7851 204.856 22.1699 208.221C22.9653 210.058 23.6392 211.946 24.187 213.872C24.7091 215.661 25.0591 217.276 25.3261 218.641C25.593 220.006 25.7176 221.139 25.8066 221.914C25.8189 222.322 25.8625 222.728 25.9371 223.13Z" fill="#E0E0E0"/>
<path d="M16.6287 240.208L17.5898 253.501H34.5868L35.5479 240.208H16.6287Z" fill="#E0E0E0"/>
<path d="M37.5768 234.969H14.9852V240.208H37.5768V234.969Z" fill="#E0E0E0"/>
<path d="M14.9852 252.989V254.443H16.0472H37.2031V252.989H14.9852Z" fill="#EBEBEB"/>
<path d="M17.0856 257L16.0474 254.443H36.3964L35.1802 257H17.0856Z" fill="#E0E0E0"/>
<path d="M35.2335 244.554C35.2123 244.596 35.1864 244.636 35.1564 244.673L34.9013 245.013L33.9105 246.282L33.869 246.342L33.8215 246.282L31.3951 242.903H31.5315C30.8077 243.934 30.0009 245.078 29.1585 246.312L29.0813 246.414L28.9983 246.318L26.1565 242.92H26.3226L26.1625 243.117L23.6233 246.312L23.5402 246.42L23.4631 246.312L21.09 242.903H21.2324L18.2661 246.276L18.2186 246.336L18.1771 246.27L17.2041 244.721L16.9668 244.309C16.9357 244.264 16.9117 244.213 16.8956 244.16C16.8956 244.16 16.9312 244.202 16.9965 244.291L17.2575 244.691C17.4948 245.06 17.8508 245.579 18.2245 246.223H18.1356L21.0366 242.807L21.1078 242.718L21.179 242.813C21.9087 243.844 22.7215 244.983 23.5936 246.205H23.4334C24.2343 245.186 25.0827 244.113 25.9667 243.004L26.1209 242.807L26.1981 242.706L26.2811 242.801L29.1169 246.205H28.9567L31.3773 242.813L31.4425 242.718L31.5137 242.813L33.8868 246.229H33.8156L34.842 244.989L35.1208 244.667C35.1979 244.584 35.2276 244.548 35.2335 244.554Z" fill="#F5F5F5"/>
<path d="M35.7852 240.119C35.7852 240.178 31.5255 240.226 26.2929 240.226C21.0603 240.226 16.8007 240.178 16.8007 240.119C16.8007 240.059 21.0544 240.017 26.2929 240.017C31.5315 240.017 35.7852 240.065 35.7852 240.119Z" fill="#F5F5F5"/>
<path d="M36.6455 254.586C36.6455 254.646 32.018 254.693 26.3108 254.693C20.6036 254.693 15.9761 254.646 15.9761 254.586C15.9761 254.526 20.6036 254.479 26.3108 254.479C32.018 254.479 36.6455 254.526 36.6455 254.586Z" fill="#F5F5F5"/>
<path d="M258.254 256.994C258.254 257.084 201.301 257.155 131.117 257.155C60.9337 257.155 3.96826 257.084 3.96826 256.994C3.96826 256.905 60.8863 256.839 131.117 256.839C201.348 256.839 258.254 256.911 258.254 256.994Z" fill="#161344"/>
<path d="M239.323 22.3741H8.94006V175.233H239.323V22.3741Z" fill="#FAFAFA"/>
<path d="M239.323 175.233C239.323 174.226 239.276 115.623 239.199 22.375L239.323 22.5002H8.95779L9.11204 22.3452C9.11204 76.7394 9.11204 128.487 9.11204 175.203L8.96965 175.06L239.353 175.203L8.96965 175.346H8.82727V175.203C8.82727 128.487 8.82727 76.7394 8.82727 22.3452V22.1902H8.99932H239.365H239.489V22.3154C239.371 115.599 239.323 174.226 239.323 175.233Z" fill="#161344"/>
<path d="M28.6425 38.0703L28.945 37.3968C29.3874 37.728 29.924 37.9077 30.4757 37.9094C31.1995 37.9094 31.508 37.6471 31.508 37.3133C31.508 36.3059 28.7433 36.9676 28.7433 35.2329C28.7433 34.4759 29.3366 33.8381 30.618 33.8381C31.162 33.83 31.6976 33.9722 32.1665 34.2494L31.8936 34.923C31.5048 34.6928 31.0633 34.5675 30.6121 34.5594C29.8943 34.5594 29.6036 34.8395 29.6036 35.1912C29.6036 36.1867 32.3563 35.537 32.3563 37.2537C32.3563 37.9988 31.7631 38.6426 30.4757 38.6426C29.8187 38.659 29.1745 38.4579 28.6425 38.0703Z" fill="#161344"/>
<path d="M36.4617 37.045H33.6734C33.7263 37.3054 33.873 37.537 34.0854 37.6954C34.2978 37.8538 34.5609 37.9279 34.8243 37.9034C35.0027 37.9111 35.1806 37.8805 35.3464 37.8137C35.5121 37.7469 35.6617 37.6454 35.7854 37.5159L36.2303 38.0286C36.0527 38.2289 35.8325 38.3865 35.586 38.4897C35.3395 38.5928 35.0731 38.639 34.8065 38.6247C34.5542 38.6511 34.2993 38.6231 34.0587 38.5424C33.8181 38.4618 33.5975 38.3305 33.4115 38.1572C33.2256 37.9839 33.0786 37.7727 32.9806 37.5377C32.8825 37.3027 32.8355 37.0494 32.8428 36.7947C32.8362 36.5513 32.8792 36.3091 32.969 36.0829C33.0589 35.8568 33.1938 35.6515 33.3655 35.4796C33.5371 35.3077 33.7419 35.1728 33.9672 35.0833C34.1926 34.9937 34.4337 34.9513 34.676 34.9587C34.9162 34.9517 35.1552 34.9949 35.3779 35.0857C35.6005 35.1765 35.8019 35.3129 35.9693 35.4861C36.1367 35.6593 36.2664 35.8657 36.3501 36.092C36.4339 36.3183 36.4699 36.5596 36.4558 36.8006C36.4736 36.8662 36.4676 36.9675 36.4617 37.045ZM33.6674 36.4966H35.6786C35.6545 36.25 35.537 36.0221 35.3504 35.8601C35.1638 35.6982 34.9223 35.6144 34.676 35.6263C34.43 35.6186 34.1901 35.7036 34.0035 35.8647C33.8168 36.0258 33.6969 36.2512 33.6674 36.4966Z" fill="#161344"/>
<path d="M39.4044 38.3684C39.1712 38.5356 38.8898 38.6214 38.6035 38.6128C38.4412 38.6332 38.2765 38.6167 38.1214 38.5645C37.9664 38.5123 37.825 38.4258 37.7076 38.3114C37.5903 38.1969 37.5001 38.0575 37.4436 37.9033C37.3871 37.7491 37.3658 37.5842 37.3813 37.4206V35.6919H36.7821V35.0243H37.3754V34.2076H38.206V35.0243H39.1552V35.6919H38.2119V37.3908C38.2119 37.7365 38.384 37.9213 38.7043 37.9213C38.8716 37.9244 39.0357 37.8743 39.173 37.7783L39.4044 38.3684Z" fill="#161344"/>
<path d="M43.5218 35.0005V38.577H42.7149V38.124C42.5726 38.287 42.3961 38.4165 42.1982 38.503C42.0002 38.5896 41.7857 38.6311 41.5699 38.6247C41.3607 38.6441 41.1499 38.6162 40.9529 38.5429C40.7558 38.4697 40.5776 38.353 40.4314 38.2015C40.2851 38.0499 40.1745 37.8674 40.1077 37.6673C40.0409 37.4672 40.0195 37.2546 40.0452 37.0451V35.0005H40.8758V36.9199C40.8758 37.5696 41.1784 37.8736 41.7064 37.8736C41.844 37.8804 41.9815 37.8565 42.1088 37.8035C42.2361 37.7505 42.3501 37.6697 42.4426 37.5671C42.5351 37.4644 42.6038 37.3425 42.6437 37.2099C42.6836 37.0774 42.6938 36.9376 42.6734 36.8007V35.0124L43.5218 35.0005Z" fill="#161344"/>
<path d="M48.3806 36.7827C48.3939 37.023 48.3573 37.2635 48.2731 37.4887C48.1889 37.714 48.059 37.9193 47.8916 38.0914C47.7242 38.2635 47.523 38.3987 47.3007 38.4885C47.0785 38.5783 46.8401 38.6206 46.6008 38.6128C46.3873 38.6205 46.1748 38.5813 45.9781 38.4979C45.7813 38.4145 45.6051 38.2889 45.4617 38.1299V39.8586H44.6311V35.0004H45.4261V35.4654C45.572 35.2953 45.7549 35.1611 45.9607 35.0732C46.1664 34.9854 46.3894 34.9462 46.6126 34.9587C46.8505 34.9526 47.087 34.996 47.3074 35.0862C47.5278 35.1763 47.7273 35.3113 47.8933 35.4825C48.0593 35.6538 48.1883 35.8577 48.2721 36.0815C48.356 36.3052 48.3929 36.544 48.3806 36.7827ZM47.5381 36.7827C47.5277 36.5752 47.4568 36.3754 47.3343 36.208C47.2119 36.0406 47.0432 35.913 46.8492 35.841C46.6552 35.7691 46.4445 35.7559 46.2431 35.8032C46.0418 35.8505 45.8587 35.9561 45.7165 36.107C45.5744 36.2579 45.4794 36.4474 45.4435 36.652C45.4076 36.8566 45.4322 37.0673 45.5144 37.258C45.5965 37.4486 45.7326 37.6109 45.9057 37.7246C46.0788 37.8382 46.2813 37.8983 46.488 37.8974C46.6321 37.9013 46.7753 37.8746 46.9084 37.8191C47.0415 37.7636 47.1615 37.6806 47.2606 37.5755C47.3596 37.4703 47.4355 37.3454 47.4833 37.2088C47.5312 37.0722 47.5498 36.927 47.5381 36.7827Z" fill="#161344"/>
<path d="M57.6058 33.8917L56.0395 38.5653H55.5175L54.1589 34.5773L52.8003 38.5653H52.2901L50.7239 33.8917H51.2282L52.5571 37.9394L53.9453 33.9215H54.4021L55.7666 37.9394L57.1312 33.9036L57.6058 33.8917Z" fill="#161344"/>
<path d="M58.2821 33.9453C58.2821 33.8537 58.3184 33.7657 58.3829 33.7009C58.4474 33.636 58.535 33.5996 58.6262 33.5996C58.7175 33.5996 58.805 33.636 58.8695 33.7009C58.9341 33.7657 58.9703 33.8537 58.9703 33.9453C58.9703 34.037 58.9341 34.125 58.8695 34.1898C58.805 34.2547 58.7175 34.2911 58.6262 34.2911C58.535 34.2911 58.4474 34.2547 58.3829 34.1898C58.3184 34.125 58.2821 34.037 58.2821 33.9453ZM58.383 35.0541H58.8576V38.5651H58.383V35.0541Z" fill="#161344"/>
<path d="M62.6364 38.1717V38.5651H59.7947V38.2492L61.9957 35.4535H59.8362V35.0541H62.6008V35.364L60.3998 38.1717H62.6364Z" fill="#161344"/>
<path d="M66.208 36.3894V38.5651H65.7571V38.0167C65.6291 38.2122 65.4519 38.3703 65.2436 38.4749C65.0352 38.5796 64.8031 38.6271 64.5706 38.6128C63.7815 38.6128 63.295 38.2015 63.295 37.5934C63.295 36.9854 63.6391 36.598 64.6418 36.598H65.7512V36.3834C65.7512 35.7873 65.413 35.4595 64.7663 35.4595C64.3342 35.4472 63.9125 35.5934 63.5798 35.8708L63.3662 35.5191C63.7683 35.1974 64.2704 35.0285 64.7841 35.0422C64.9705 35.0133 65.161 35.0274 65.3411 35.0836C65.5212 35.1398 65.6862 35.2365 65.8235 35.3664C65.9608 35.4963 66.0668 35.656 66.1334 35.8332C66.2 36.0105 66.2255 36.2007 66.208 36.3894ZM65.7334 37.51V36.9139H64.6655C63.9832 36.9139 63.7637 37.1821 63.7637 37.5458C63.7637 37.9094 64.09 38.2074 64.6477 38.2074C64.8782 38.2183 65.1065 38.1571 65.3009 38.0322C65.4954 37.9073 65.6465 37.7248 65.7334 37.51Z" fill="#161344"/>
<path d="M69.2518 35.0244V35.4834H69.1391C68.9713 35.4737 68.8036 35.5016 68.6479 35.5651C68.4923 35.6286 68.3526 35.726 68.239 35.8504C68.1255 35.9748 68.0408 36.123 67.9913 36.2842C67.9417 36.4455 67.9285 36.6158 67.9525 36.7829V38.5712H67.4779V35.0542H67.9288V35.7397C68.0511 35.4998 68.2431 35.3028 68.4794 35.1751C68.7157 35.0473 68.9851 34.9948 69.2518 35.0244Z" fill="#161344"/>
<path d="M73.2618 33.6116V38.5651H72.805V37.8677C72.6655 38.0986 72.4671 38.2878 72.2303 38.4157C71.9935 38.5435 71.7269 38.6054 71.4583 38.5949C70.9862 38.5949 70.5335 38.4065 70.1998 38.0712C69.866 37.7358 69.6785 37.2809 69.6785 36.8067C69.6785 36.3324 69.866 35.8775 70.1998 35.5421C70.5335 35.2068 70.9862 35.0184 71.4583 35.0184C71.7209 35.0092 71.9814 35.0686 72.2144 35.1908C72.4473 35.3131 72.6447 35.494 72.7872 35.7158V33.6116H73.2618ZM72.7932 36.8067C72.7804 36.5514 72.6933 36.3055 72.5427 36.0995C72.3922 35.8935 72.1847 35.7364 71.9461 35.6478C71.7076 35.5592 71.4483 35.5428 71.2006 35.6009C70.9529 35.6589 70.7275 35.7887 70.5525 35.9742C70.3775 36.1597 70.2606 36.3927 70.2162 36.6444C70.1718 36.896 70.2019 37.1553 70.3028 37.3899C70.4036 37.6245 70.5708 37.8242 70.7836 37.9643C70.9964 38.1043 71.2454 38.1785 71.4998 38.1777C71.6766 38.1806 71.852 38.1465 72.015 38.0777C72.1779 38.0089 72.3249 37.9068 72.4465 37.7779C72.5681 37.649 72.6617 37.4961 72.7214 37.3289C72.7811 37.1617 72.8055 36.9838 72.7932 36.8067Z" fill="#161344"/>
<path d="M31.0392 90.8848L31.229 90.5033C31.6514 90.888 32.2014 91.1006 32.7715 91.0994C33.6436 91.0994 34.0233 90.7299 34.0233 90.2709C34.0233 88.9833 31.1519 89.7701 31.1519 88.0414C31.1519 87.3499 31.6859 86.7538 32.8665 86.7538C33.3792 86.7481 33.8824 86.8931 34.314 87.1711L34.1479 87.5645C33.7666 87.3145 33.3218 87.18 32.8665 87.1771C32.0181 87.1771 31.6384 87.5586 31.6384 88.0235C31.6384 89.3111 34.5098 88.5362 34.5098 90.2411C34.5098 90.9325 33.964 91.5227 32.7715 91.5227C32.1345 91.5382 31.5154 91.3102 31.0392 90.8848Z" fill="#FFD400"/>
<path d="M37.3279 91.2426C37.117 91.4093 36.8544 91.4958 36.5863 91.487C36.4487 91.5029 36.3093 91.4876 36.1784 91.4421C36.0475 91.3967 35.9284 91.3224 35.8299 91.2245C35.7314 91.1267 35.656 91.0079 35.6093 90.8769C35.5626 90.746 35.5457 90.6061 35.5599 90.4677V88.3397H34.9667V87.9343H35.5599V87.1654H36.0345V87.9343H37.1024V88.3397H36.0345V90.4379C36.028 90.5201 36.0385 90.6028 36.0653 90.6807C36.0922 90.7586 36.1348 90.83 36.1906 90.8906C36.2464 90.9511 36.314 90.9993 36.3893 91.0322C36.4645 91.0651 36.5457 91.0819 36.6278 91.0817C36.8175 91.0866 37.0027 91.0231 37.1499 90.9028L37.3279 91.2426Z" fill="#FFD400"/>
<path d="M41.113 89.8418H38.1823C38.1913 90.0136 38.2342 90.1819 38.3085 90.3369C38.3828 90.492 38.487 90.6306 38.6151 90.7448C38.7431 90.8591 38.8924 90.9466 39.0544 91.0024C39.2164 91.0582 39.3878 91.0811 39.5586 91.0698C39.7606 91.0763 39.9616 91.038 40.1471 90.9576C40.3327 90.8772 40.4984 90.7568 40.6325 90.6049L40.8994 90.9148C40.6486 91.1766 40.3272 91.359 39.9746 91.4398C39.6221 91.5206 39.2537 91.4961 38.9148 91.3695C38.5758 91.2429 38.281 91.0196 38.0666 90.7271C37.8522 90.4345 37.7274 90.0854 37.7076 89.7226C37.6945 89.4899 37.7294 89.2569 37.8101 89.0383C37.8907 88.8198 38.0154 88.6203 38.1764 88.4524C38.3374 88.2845 38.5311 88.1518 38.7455 88.0627C38.9598 87.9735 39.1902 87.9298 39.4222 87.9343C39.6534 87.9296 39.8831 87.9734 40.0966 88.0627C40.3101 88.152 40.5027 88.285 40.6623 88.4532C40.8219 88.6214 40.9449 88.8211 41.0235 89.0397C41.1021 89.2582 41.1346 89.4908 41.1189 89.7226C41.1189 89.7345 41.113 89.8001 41.113 89.8418ZM38.1823 89.4901H40.6681C40.6463 89.1738 40.5059 88.8776 40.2752 88.6613C40.0445 88.445 39.7407 88.3246 39.4252 88.3246C39.1096 88.3246 38.8058 88.445 38.5751 88.6613C38.3444 88.8776 38.204 89.1738 38.1823 89.4901Z" fill="#FFD400"/>
<path d="M45.6334 89.6988C45.6459 89.9339 45.6096 90.169 45.5268 90.3893C45.4441 90.6095 45.3166 90.8101 45.1526 90.9783C44.9886 91.1464 44.7916 91.2785 44.5741 91.3661C44.3567 91.4537 44.1234 91.4949 43.8892 91.4871C43.6273 91.4964 43.3673 91.4376 43.1345 91.3165C42.9017 91.1954 42.704 91.016 42.5603 90.7956V92.7807H42.0857V87.9582H42.5366V88.6079C42.6791 88.3789 42.8792 88.1917 43.1167 88.0651C43.3541 87.9385 43.6206 87.8769 43.8892 87.8866C44.1255 87.8786 44.3609 87.9204 44.5801 88.0095C44.7993 88.0985 44.9975 88.2327 45.1619 88.4035C45.3262 88.5743 45.4531 88.7778 45.5344 89.0009C45.6156 89.224 45.6493 89.4618 45.6334 89.6988ZM45.1648 89.6988C45.1543 89.4405 45.0684 89.1911 44.9179 88.9815C44.7673 88.7719 44.5587 88.6114 44.3181 88.5201C44.0775 88.4287 43.8154 88.4105 43.5645 88.4677C43.3136 88.5249 43.0851 88.655 42.9073 88.8418C42.7294 89.0286 42.6102 89.2638 42.5645 89.5182C42.5187 89.7726 42.5485 90.0348 42.65 90.2723C42.7515 90.5098 42.9203 90.7121 43.1354 90.8539C43.3505 90.9957 43.6023 91.0708 43.8596 91.0699C44.0366 91.0718 44.2121 91.0371 44.3752 90.9681C44.5384 90.8991 44.6857 90.7972 44.808 90.6687C44.9304 90.5401 45.0252 90.3877 45.0865 90.2209C45.1479 90.0541 45.1745 89.8764 45.1648 89.6988Z" fill="#FFD400"/>
<path d="M51.1214 90.1099C51.1214 90.8967 50.5282 91.4988 49.4306 91.4988C48.8161 91.5205 48.2162 91.3075 47.7517 90.9027L47.9831 90.5212C48.3778 90.8824 48.897 91.0748 49.4306 91.0577C50.2019 91.0577 50.6172 90.7 50.6172 90.1159C50.6172 89.5317 50.2197 89.1859 49.3535 89.1859H49.0213V88.8342L50.3146 87.2069H47.9416V86.7777H50.9435V87.1175L49.6205 88.7866C50.6231 88.8342 51.1214 89.3588 51.1214 90.1099Z" fill="#FFD400"/>
<path d="M195.422 150.531H171.317C170.731 150.531 170.255 151.009 170.255 151.598V164.051C170.255 164.64 170.731 165.118 171.317 165.118H195.422C196.008 165.118 196.484 164.64 196.484 164.051V151.598C196.484 151.009 196.008 150.531 195.422 150.531Z" fill="#E0E0E0"/>
<path d="M181.93 158.429C181.93 159.103 181.432 159.49 180.441 159.49H178.626V155.514H180.352C181.236 155.514 181.747 155.89 181.747 156.54C181.754 156.733 181.701 156.924 181.594 157.086C181.488 157.247 181.334 157.371 181.153 157.44C181.381 157.48 181.586 157.603 181.729 157.786C181.873 157.968 181.944 158.197 181.93 158.429ZM179.041 155.86V157.303H180.305C180.934 157.303 181.302 157.058 181.302 156.581C181.302 156.105 180.934 155.86 180.305 155.86H179.041ZM181.509 158.394C181.509 157.875 181.135 157.648 180.441 157.648H179.041V159.145H180.441C181.135 159.145 181.539 158.948 181.539 158.394H181.509Z" fill="white"/>
<path d="M185.04 157.636V159.49H184.66V159.025C184.547 159.192 184.393 159.325 184.213 159.412C184.033 159.499 183.833 159.536 183.634 159.52C182.963 159.52 182.548 159.163 182.548 158.65C182.548 158.137 182.844 157.803 183.699 157.803H184.642V157.619C184.642 157.112 184.351 156.832 183.8 156.832C183.438 156.827 183.087 156.952 182.809 157.183L182.631 156.885C182.968 156.617 183.387 156.473 183.817 156.48C183.978 156.453 184.142 156.464 184.297 156.512C184.453 156.56 184.595 156.643 184.713 156.754C184.831 156.866 184.922 157.004 184.979 157.157C185.036 157.31 185.056 157.474 185.04 157.636ZM184.642 158.59V158.101H183.711C183.117 158.101 182.945 158.334 182.945 158.638C182.945 158.942 183.224 159.198 183.699 159.198C183.9 159.211 184.1 159.158 184.269 159.049C184.439 158.94 184.569 158.779 184.642 158.59Z" fill="white"/>
<path d="M185.84 157.994C185.834 157.792 185.87 157.59 185.945 157.402C186.02 157.214 186.133 157.044 186.277 156.902C186.421 156.759 186.592 156.649 186.78 156.576C186.968 156.504 187.17 156.471 187.371 156.48C187.604 156.461 187.838 156.507 188.047 156.612C188.256 156.717 188.433 156.877 188.558 157.076L188.261 157.279C188.165 157.138 188.035 157.024 187.884 156.947C187.732 156.87 187.564 156.832 187.395 156.838C187.133 156.898 186.898 157.045 186.731 157.256C186.563 157.468 186.472 157.73 186.472 158C186.472 158.27 186.563 158.532 186.731 158.743C186.898 158.955 187.133 159.102 187.395 159.162C187.564 159.17 187.732 159.134 187.884 159.058C188.036 158.981 188.165 158.868 188.261 158.727L188.558 158.936C188.43 159.132 188.253 159.291 188.045 159.396C187.836 159.501 187.604 159.548 187.371 159.532C187.168 159.54 186.965 159.506 186.775 159.432C186.586 159.358 186.414 159.245 186.27 159.1C186.126 158.956 186.014 158.783 185.94 158.592C185.866 158.402 185.832 158.198 185.84 157.994Z" fill="white"/>
<path d="M190.379 157.988L189.678 158.638V159.49H189.251V155.276H189.655V158.131L191.435 156.504H191.927L190.675 157.756L192.063 159.544H191.577L190.379 157.988Z" fill="white"/>
<path d="M175.435 156.593C175.121 157.004 174.763 157.377 174.367 157.708V157.571C174.765 157.896 175.126 158.266 175.44 158.674C175.01 158.401 174.611 158.079 174.254 157.714L174.183 157.642L174.254 157.577C174.607 157.203 175.003 156.873 175.435 156.593Z" fill="white"/>
<path d="M177.131 157.642C176.192 157.77 175.24 157.77 174.301 157.642C175.24 157.515 176.192 157.515 177.131 157.642Z" fill="white"/>
<path d="M226.194 150.531H202.09C201.503 150.531 201.028 151.009 201.028 151.598V164.051C201.028 164.64 201.503 165.118 202.09 165.118H226.194C226.781 165.118 227.256 164.64 227.256 164.051V151.598C227.256 151.009 226.781 150.531 226.194 150.531Z" fill="#FFD400"/>
<path d="M209.268 155.514V159.49H208.924L206.385 156.265V159.49H205.97V155.514H206.314L208.859 158.739V155.514H209.268Z" fill="white"/>
<path d="M213.06 158.119H210.574C210.582 158.266 210.619 158.41 210.684 158.543C210.748 158.675 210.839 158.793 210.949 158.89C211.06 158.986 211.189 159.06 211.328 159.106C211.467 159.151 211.614 159.169 211.76 159.157C211.931 159.162 212.102 159.13 212.259 159.063C212.417 158.996 212.558 158.896 212.674 158.769L212.899 159.031C212.685 159.255 212.411 159.411 212.109 159.479C211.808 159.547 211.493 159.524 211.205 159.413C210.916 159.303 210.666 159.109 210.487 158.857C210.307 158.604 210.205 158.304 210.194 157.994C210.181 157.796 210.209 157.597 210.276 157.41C210.343 157.222 210.447 157.051 210.583 156.906C210.718 156.761 210.882 156.645 211.063 156.566C211.245 156.487 211.441 156.447 211.639 156.447C211.837 156.447 212.032 156.487 212.214 156.566C212.396 156.645 212.559 156.761 212.694 156.906C212.83 157.051 212.934 157.222 213.001 157.41C213.068 157.597 213.096 157.796 213.083 157.994C213.065 158.03 213.06 158.078 213.06 158.119ZM210.574 157.821H212.68C212.66 157.554 212.54 157.305 212.345 157.123C212.15 156.941 211.893 156.84 211.627 156.84C211.36 156.84 211.104 156.941 210.909 157.123C210.713 157.305 210.594 157.554 210.574 157.821Z" fill="white"/>
<path d="M215.694 159.49L214.75 158.238L213.801 159.49H213.344L214.531 157.958L213.41 156.504H213.86L214.756 157.696L215.646 156.504H216.085L214.97 157.958L216.156 159.49H215.694Z" fill="white"/>
<path d="M218.381 159.305C218.201 159.464 217.968 159.549 217.729 159.544C217.611 159.557 217.493 159.544 217.381 159.505C217.27 159.466 217.169 159.402 217.085 159.318C217.002 159.235 216.938 159.134 216.898 159.022C216.858 158.91 216.844 158.791 216.856 158.674V156.885H216.328V156.545H216.856V155.89H217.26V156.545H218.162V156.885H217.26V158.674C217.25 158.745 217.256 158.818 217.278 158.887C217.3 158.956 217.337 159.019 217.387 159.071C217.436 159.123 217.497 159.163 217.565 159.189C217.632 159.214 217.704 159.223 217.776 159.216C217.935 159.221 218.091 159.168 218.215 159.067L218.381 159.305Z" fill="white"/>
<path d="M221.11 158.674C221.423 158.263 221.781 157.889 222.178 157.559V157.696C221.779 157.371 221.419 157.001 221.104 156.593C221.536 156.867 221.934 157.191 222.29 157.559L222.367 157.624L222.29 157.696C221.937 158.068 221.54 158.396 221.11 158.674Z" fill="white"/>
<path d="M219.413 157.624C219.881 157.537 220.357 157.506 220.831 157.535C221.304 157.506 221.778 157.536 222.243 157.624C221.779 157.72 221.304 157.752 220.831 157.72C220.356 157.752 219.88 157.72 219.413 157.624Z" fill="white"/>
<path d="M36.5625 72.0183C39.7866 72.0183 42.4003 69.3922 42.4003 66.1527C42.4003 62.9132 39.7866 60.2871 36.5625 60.2871C33.3384 60.2871 30.7247 62.9132 30.7247 66.1527C30.7247 69.3922 33.3384 72.0183 36.5625 72.0183Z" fill="#FFD400"/>
<path d="M155.578 66.4924C155.528 66.015 155.448 65.5412 155.34 65.0737C155.002 63.8095 154.249 62.6966 153.205 61.9144C152.497 61.3732 151.671 61.0094 150.796 60.8533C149.792 60.6697 148.757 60.7603 147.8 61.1156C146.742 61.5029 145.823 62.1981 145.16 63.1125C144.443 64.0912 144.057 65.2744 144.057 66.4894C144.057 67.7044 144.443 68.8876 145.16 69.8663C145.49 70.3248 145.89 70.7273 146.346 71.0585C146.785 71.3927 147.271 71.658 147.788 71.8454C148.746 72.1961 149.78 72.2845 150.784 72.1017C151.66 71.9456 152.485 71.5818 153.193 71.0406C154.237 70.2584 154.99 69.1455 155.328 67.8813C155.436 67.4156 155.515 66.9438 155.566 66.4686C155.604 66.953 155.562 67.4404 155.441 67.9111C155.14 69.2265 154.393 70.3959 153.329 71.2195C152.596 71.7885 151.741 72.1783 150.832 72.358C149.78 72.5564 148.696 72.472 147.687 72.1136C147.145 71.9202 146.634 71.6448 146.174 71.297C145.686 70.9452 145.257 70.5165 144.905 70.0273C144.143 68.9987 143.732 67.7507 143.732 66.4686C143.732 65.1864 144.143 63.9384 144.905 62.9099C145.255 62.4175 145.684 61.9865 146.174 61.6342C146.634 61.2863 147.145 61.0109 147.687 60.8175C148.696 60.4591 149.78 60.3748 150.832 60.5731C151.741 60.7529 152.596 61.1427 153.329 61.7117C154.393 62.5352 155.14 63.7047 155.441 65.02C155.568 65.4997 155.614 65.9974 155.578 66.4924Z" fill="#161344"/>
<path d="M212.14 65.813C212.098 65.813 212.14 65.2885 211.897 64.3943C211.555 63.1329 210.806 62.0214 209.767 61.235C209.003 60.6579 208.108 60.2824 207.163 60.1429C206.217 60.0033 205.252 60.1042 204.356 60.4362C203.84 60.6238 203.354 60.8869 202.914 61.2171C202.459 61.5499 202.059 61.9522 201.728 62.4093C201.011 63.3889 200.624 64.5732 200.624 65.7892C200.624 67.0053 201.011 68.1895 201.728 69.1691C202.391 70.0836 203.31 70.7788 204.368 71.166C205.264 71.4981 206.229 71.5989 207.175 71.4594C208.12 71.3198 209.015 70.9443 209.779 70.3673C210.818 69.5808 211.567 68.4694 211.908 67.2079C212.14 66.3138 212.11 65.7892 212.152 65.7892C212.186 66.2756 212.144 66.7644 212.027 67.2377C211.764 68.3453 211.188 69.3533 210.37 70.1409C209.551 70.9285 208.524 71.4624 207.411 71.6787C206.362 71.8827 205.278 71.7982 204.273 71.4343C203.728 71.2443 203.216 70.9709 202.754 70.6236C202.264 70.2713 201.835 69.8403 201.485 69.3479C200.723 68.3193 200.311 67.0714 200.311 65.7892C200.311 64.5071 200.723 63.2591 201.485 62.2305C201.835 61.7381 202.264 61.3071 202.754 60.9548C203.216 60.6076 203.728 60.3341 204.273 60.1441C205.278 59.7802 206.362 59.6958 207.411 59.8997C208.524 60.116 209.551 60.6499 210.37 61.4375C211.188 62.2251 211.764 63.2331 212.027 64.3407C212.142 64.8224 212.18 65.3194 212.14 65.813Z" fill="#161344"/>
<path d="M38.995 64.567C38.3175 65.5099 37.557 66.3897 36.7227 67.1958C36.5151 67.4223 36.3075 67.6369 36.1295 67.8396L36.0227 67.9529L35.9159 67.8456C35.2624 67.2758 34.6663 66.6429 34.1361 65.9559C34.8508 66.4437 35.5129 67.0051 36.1117 67.631H35.904C36.0939 67.4223 36.2956 67.2018 36.4973 66.9812C37.2569 66.1036 38.0927 65.2957 38.995 64.567Z" fill="white"/>
<path d="M85.7681 64.9604H43.5038V67.345H85.7681V64.9604Z" fill="#FFD400"/>
<path d="M92.9943 72.0183C96.2184 72.0183 98.832 69.3922 98.832 66.1527C98.832 62.9132 96.2184 60.2871 92.9943 60.2871C89.7701 60.2871 87.1565 62.9132 87.1565 66.1527C87.1565 69.3922 89.7701 72.0183 92.9943 72.0183Z" fill="#FFD400"/>
<path d="M95.4263 64.567C94.7467 65.5082 93.9864 66.3878 93.1541 67.1958C92.9405 67.4223 92.7388 67.6369 92.5608 67.8396L92.46 67.9529L92.3532 67.8456C91.6959 67.2799 91.0993 66.6465 90.5734 65.9559C91.2841 66.4466 91.9439 67.0078 92.543 67.631H92.3354L92.9287 66.9812C93.6875 66.1029 94.5234 65.2949 95.4263 64.567Z" fill="white"/>
<path d="M142.194 64.9604H99.9293V67.345H142.194V64.9604Z" fill="#FFD400"/>
<path d="M199.497 65.8131C199.497 65.8966 190.035 65.9681 178.365 65.9681C166.696 65.9681 157.215 65.8966 157.215 65.8131C157.215 65.7297 166.708 65.6582 178.347 65.6582C189.987 65.6582 199.497 65.7297 199.497 65.8131Z" fill="#161344"/>
<path d="M239.323 47.2383C239.323 47.3218 187.745 47.3933 124.135 47.3933C60.5246 47.3933 8.94006 47.3218 8.94006 47.2383C8.94006 47.1549 60.5068 47.0834 124.135 47.0834C187.762 47.0834 239.323 47.1489 239.323 47.2383Z" fill="#E0E0E0"/>
<path d="M209.885 99.3794C209.885 99.4628 170.54 99.5344 122.016 99.5344C73.4932 99.5344 34.13 99.4628 34.13 99.3794C34.13 99.2959 73.4695 99.2244 122.016 99.2244C170.563 99.2244 209.885 99.2959 209.885 99.3794Z" fill="#161344"/>
<path d="M112.489 106.348C112.422 106.355 112.354 106.355 112.287 106.348H111.694L109.41 106.378L101.015 106.425L73.3153 106.467L45.6097 106.425L37.2091 106.378L34.9309 106.348H34.3376C34.2686 106.355 34.199 106.355 34.13 106.348H34.3376H34.9309L37.2091 106.318L45.6097 106.27L73.3153 106.223L101.015 106.27L109.41 106.318L111.694 106.348H112.287H112.489Z" fill="#161344"/>
<path d="M191.939 116.488C191.939 116.571 159.808 116.643 120.154 116.643C80.4998 116.643 48.3685 116.571 48.3685 116.488C48.3685 116.404 80.4939 116.333 120.154 116.333C159.814 116.333 191.939 116.404 191.939 116.488Z" fill="#161344"/>
<path d="M39.4044 118.788C38.7834 118.788 38.1764 118.603 37.6602 118.257C37.1439 117.91 36.7417 117.417 36.5043 116.84C36.267 116.264 36.2052 115.63 36.3267 115.018C36.4483 114.406 36.7478 113.844 37.1873 113.403C37.6268 112.962 38.1866 112.663 38.7957 112.542C39.4049 112.421 40.0361 112.484 40.6095 112.723C41.1828 112.963 41.6726 113.368 42.0167 113.887C42.3609 114.407 42.5439 115.017 42.5427 115.641C42.5396 116.476 42.2078 117.276 41.6197 117.865C41.0317 118.455 40.2352 118.787 39.4044 118.788ZM39.4044 113.084C38.901 113.084 38.4089 113.234 37.9904 113.515C37.5718 113.796 37.2456 114.195 37.053 114.662C36.8604 115.13 36.81 115.644 36.9082 116.14C37.0064 116.636 37.2488 117.092 37.6047 117.449C37.9606 117.807 38.4141 118.051 38.9078 118.149C39.4015 118.248 39.9133 118.197 40.3783 118.004C40.8434 117.81 41.2409 117.482 41.5206 117.062C41.8002 116.641 41.9495 116.147 41.9495 115.641C41.9479 114.963 41.6793 114.314 41.2023 113.835C40.7253 113.355 40.0789 113.085 39.4044 113.084Z" fill="#E0E0E0"/>
<path d="M162.827 124.213C162.827 124.213 162.732 124.213 162.537 124.213H161.67L158.336 124.243L146.074 124.291L105.601 124.374L65.1401 124.326L52.8773 124.279L49.549 124.249H48.6769H48.3862H48.6769H49.549L52.8773 124.219L65.1401 124.171L105.601 124.124L146.05 124.171L158.313 124.219L161.647 124.249H162.513C162.732 124.201 162.827 124.213 162.827 124.213Z" fill="#161344"/>
<path d="M39.4044 127.354C38.7837 127.354 38.1769 127.169 37.6608 126.823C37.1447 126.476 36.7424 125.984 36.5049 125.408C36.2674 124.832 36.2052 124.198 36.3263 123.586C36.4474 122.974 36.7463 122.412 37.1852 121.971C37.6241 121.53 38.1833 121.23 38.7921 121.108C39.4009 120.987 40.0319 121.049 40.6054 121.288C41.1788 121.526 41.669 121.93 42.0138 122.449C42.3587 122.968 42.5428 123.577 42.5428 124.201C42.5412 125.037 42.21 125.838 41.6218 126.429C41.0336 127.02 40.2362 127.353 39.4044 127.354ZM39.4044 121.644C38.901 121.644 38.4089 121.794 37.9904 122.075C37.5718 122.356 37.2456 122.755 37.053 123.222C36.8604 123.69 36.81 124.204 36.9082 124.7C37.0064 125.196 37.2488 125.652 37.6047 126.009C37.9606 126.367 38.4141 126.61 38.9078 126.709C39.4015 126.808 39.9133 126.757 40.3783 126.564C40.8434 126.37 41.2409 126.042 41.5206 125.622C41.8002 125.201 41.9495 124.707 41.9495 124.201C41.9448 123.525 41.6748 122.879 41.1981 122.402C40.7215 121.925 40.0769 121.657 39.4044 121.656V121.644Z" fill="#E0E0E0"/>
<path d="M39.4045 125.602C40.1679 125.602 40.7868 124.98 40.7868 124.213C40.7868 123.446 40.1679 122.824 39.4045 122.824C38.6411 122.824 38.0222 123.446 38.0222 124.213C38.0222 124.98 38.6411 125.602 39.4045 125.602Z" fill="#FFD400"/>
<path d="M191.939 133.637C191.939 133.721 159.808 133.792 120.154 133.792C80.4998 133.792 48.3685 133.721 48.3685 133.637C48.3685 133.554 80.4939 133.482 120.154 133.482C159.814 133.482 191.939 133.548 191.939 133.637Z" fill="#161344"/>
<path d="M39.4044 135.938C38.7837 135.938 38.1769 135.753 37.6608 135.407C37.1447 135.06 36.7424 134.568 36.5049 133.992C36.2674 133.415 36.2052 132.781 36.3263 132.17C36.4474 131.558 36.7463 130.996 37.1852 130.555C37.6241 130.114 38.1833 129.814 38.7921 129.692C39.4009 129.571 40.0319 129.633 40.6054 129.872C41.1788 130.11 41.669 130.514 42.0138 131.033C42.3587 131.552 42.5428 132.161 42.5428 132.785C42.5412 133.621 42.21 134.422 41.6218 135.013C41.0336 135.604 40.2362 135.937 39.4044 135.938ZM39.4044 130.234C38.9007 130.234 38.4084 130.384 37.9898 130.665C37.5711 130.946 37.2449 131.346 37.0524 131.814C36.86 132.281 36.8099 132.796 36.9086 133.292C37.0073 133.788 37.2503 134.244 37.6068 134.601C37.9634 134.959 38.4174 135.202 38.9115 135.3C39.4056 135.398 39.9175 135.346 40.3825 135.152C40.8474 134.957 41.2445 134.629 41.5234 134.207C41.8024 133.786 41.9507 133.291 41.9495 132.785C41.9479 132.108 41.6791 131.459 41.2019 130.981C40.7248 130.502 40.0784 130.234 39.4044 130.234Z" fill="#E0E0E0"/>
<path d="M91.5878 134.805C90.5748 135.198 89.6981 135.879 89.0656 136.765C88.4331 137.652 88.0725 138.705 88.0282 139.795C87.9867 141.172 88.0282 142.775 86.9662 143.64C85.9043 144.504 84.4508 144.075 83.2405 144.528C81.698 145.124 80.9327 146.835 80.5946 148.45C80.2564 150.066 80.1555 151.794 79.2538 153.177C78.352 154.56 76.9282 155.299 75.6052 156.158C74.2822 157.016 72.9711 158.214 72.7278 159.788C72.3778 162.041 74.3534 164.342 73.5406 166.476C73.0185 167.847 71.5472 168.551 70.4438 169.51C69.7249 170.135 69.1386 170.899 68.7198 171.756C68.301 172.613 68.0584 173.547 68.0063 174.5C67.9543 175.454 68.0939 176.408 68.4169 177.306C68.7398 178.204 69.2395 179.028 69.8861 179.728C70.3789 180.313 71.0034 180.773 71.708 181.069C72.4126 181.364 73.177 181.487 73.9381 181.426C75.4094 181.218 76.5781 180.139 77.6816 179.149C81.7335 175.528 86.2559 172.476 91.1251 170.077C92.3828 169.481 93.7592 168.795 94.4117 167.543C94.7012 166.89 94.8835 166.193 94.9516 165.481C96.3122 156.094 97.6747 146.708 99.0392 137.321" fill="#161344"/>
<path d="M105.458 125.882C104.907 123.814 106.111 121.566 107.897 120.392C109.683 119.218 111.901 118.943 114.031 119.003C116.161 119.063 118.653 119.599 119.863 121.453C120.616 122.603 120.747 124.076 121.423 125.28C123.328 128.678 128.62 128.737 130.684 132.04C132.648 135.175 130.643 139.282 131.111 142.954C131.426 145.416 132.844 147.568 133.953 149.792C135.062 152.015 135.881 154.644 134.944 156.945C133.935 159.401 131.099 160.992 130.791 163.633C130.441 166.906 134.303 169.904 133.117 172.974C132.238 175.251 128.964 176.115 128.59 178.53C128.4 179.823 129.183 181.039 129.509 182.297C130.387 185.492 128.323 189.003 125.357 190.482C122.39 191.96 118.831 191.727 115.716 190.648C113.225 189.781 110.932 188.42 108.973 186.646C107.015 184.872 105.431 182.722 104.314 180.322C103.198 177.922 102.572 175.321 102.474 172.673C102.376 170.026 102.808 167.386 103.744 164.909" fill="#161344"/>
<path d="M72.0692 157.72C71.9605 157.537 71.7991 157.391 71.6065 157.302C71.3721 157.203 71.1121 157.182 70.8649 157.243C70.6974 157.277 70.5417 157.355 70.4128 157.467C70.2839 157.58 70.1862 157.725 70.1293 157.887C70.0678 158.093 70.0535 158.31 70.0874 158.523C70.1213 158.736 70.2025 158.938 70.325 159.115C70.4741 159.323 70.6729 159.489 70.9031 159.6C71.1333 159.71 71.3874 159.761 71.6421 159.746C71.9368 159.738 72.2269 159.671 72.4957 159.549C72.7645 159.427 73.0067 159.253 73.2083 159.037C73.662 158.537 73.9877 157.933 74.1575 157.279C74.5728 155.902 74.4542 154.298 74.6025 152.587C74.6733 151.691 74.9108 150.815 75.3025 150.006C75.5178 149.579 75.8048 149.191 76.1509 148.862C76.5148 148.531 76.9402 148.275 77.4027 148.111C78.3556 147.851 79.331 147.683 80.3157 147.61C80.8066 147.593 81.2894 147.48 81.7364 147.275C82.1833 147.07 82.5856 146.779 82.9201 146.418C83.5549 145.637 83.6083 144.534 83.5134 143.485C83.3659 142.396 83.2945 141.299 83.2998 140.2C83.3882 139.078 83.7643 137.998 84.3914 137.065C84.9851 136.137 85.8642 135.429 86.895 135.05C87.9038 134.785 88.9565 134.734 89.9859 134.901C90.9589 134.972 91.9852 135.014 92.709 134.442C93.4328 133.87 93.6286 132.916 93.676 132.057C93.6753 131.167 93.7628 130.278 93.9371 129.405C94.3555 127.836 95.2928 126.457 96.5949 125.494C97.6671 124.705 98.956 124.268 100.285 124.243C101.279 124.217 102.267 124.408 103.18 124.803C103.759 125.041 104.298 125.369 104.776 125.775C104.944 125.91 105.101 126.06 105.245 126.222C105.245 126.222 105.073 126.079 104.735 125.822C104.246 125.444 103.707 125.137 103.133 124.91C102.23 124.55 101.262 124.381 100.291 124.415C99.0045 124.46 97.7623 124.899 96.7313 125.673C95.4814 126.613 94.5862 127.952 94.1922 129.47C94.0289 130.329 93.9494 131.201 93.9549 132.075C93.9377 132.548 93.8599 133.017 93.7235 133.47C93.5676 133.942 93.2766 134.357 92.887 134.662C92.4768 134.973 91.9869 135.159 91.475 135.199C90.9737 135.244 90.4694 135.244 89.9681 135.199C88.9807 135.035 87.97 135.081 87.0018 135.336C86.0249 135.692 85.1912 136.36 84.6287 137.238C84.0324 138.124 83.6747 139.151 83.5905 140.218C83.5889 141.304 83.6583 142.39 83.7981 143.467C83.8495 144.011 83.8356 144.559 83.7566 145.1C83.6795 145.65 83.4607 146.17 83.1218 146.608C82.7816 147.034 82.3354 147.361 81.8285 147.556C81.3419 147.734 80.8361 147.854 80.3216 147.914C79.3553 147.979 78.3976 148.139 77.462 148.391C77.0246 148.536 76.621 148.77 76.2755 149.076C75.9532 149.381 75.6862 149.74 75.4865 150.137C75.107 150.916 74.8737 151.759 74.7983 152.623C74.6381 154.298 74.7449 155.925 74.3059 157.35C74.123 158.036 73.7722 158.665 73.2854 159.18C73.0648 159.411 72.8007 159.596 72.5085 159.724C72.2162 159.852 71.9015 159.921 71.5828 159.925C71.3018 159.934 71.023 159.873 70.7714 159.747C70.5197 159.622 70.3032 159.435 70.1411 159.204C70.0097 159.008 69.9247 158.783 69.8928 158.549C69.861 158.314 69.883 158.076 69.9572 157.851C70.0232 157.674 70.1339 157.517 70.2785 157.395C70.4231 157.274 70.5965 157.193 70.7819 157.159C71.0495 157.101 71.3287 157.132 71.5768 157.249C71.6895 157.284 71.7925 157.345 71.8779 157.426C71.9634 157.508 72.0288 157.608 72.0692 157.72Z" fill="#161344"/>
<path d="M136.901 165.105C136.928 165.156 136.952 165.208 136.973 165.26C137.03 165.415 137.059 165.578 137.056 165.743C137.03 166.064 136.926 166.374 136.753 166.645C136.581 166.917 136.344 167.141 136.065 167.299C135.669 167.552 135.193 167.65 134.73 167.573C134.183 167.46 133.694 167.156 133.348 166.715C132.946 166.218 132.694 165.616 132.624 164.98C132.561 164.269 132.68 163.553 132.968 162.9C133.526 161.505 134.683 160.337 135.756 159.037C136.32 158.375 136.775 157.626 137.103 156.82C137.432 155.959 137.589 155.041 137.566 154.119C137.544 153.15 137.328 152.195 136.931 151.312C136.502 150.405 135.897 149.594 135.151 148.927C134.398 148.218 133.55 147.568 132.778 146.769C131.956 145.975 131.425 144.925 131.271 143.789C131.223 142.671 131.395 141.555 131.776 140.504C132.122 139.506 132.359 138.473 132.482 137.422C132.601 136.44 132.523 135.444 132.252 134.493C131.98 133.541 131.522 132.655 130.904 131.885C130.312 131.182 129.564 130.629 128.72 130.269C127.914 129.956 127.049 129.824 126.187 129.882C125.348 129.952 124.504 129.846 123.707 129.572C122.987 129.233 122.42 128.635 122.117 127.897C121.524 126.526 121.524 125.161 121.257 124.058C121.153 123.537 120.971 123.034 120.717 122.568C120.502 122.181 120.201 121.849 119.839 121.596C119.344 121.225 118.725 121.062 118.113 121.143C117.907 121.194 117.708 121.268 117.519 121.363C117.69 121.22 117.894 121.124 118.113 121.083C118.737 120.98 119.376 121.128 119.892 121.495C120.275 121.754 120.595 122.096 120.83 122.496C121.104 122.969 121.304 123.482 121.423 124.016C121.708 125.143 121.708 126.502 122.313 127.807C122.601 128.49 123.132 129.041 123.802 129.351C124.566 129.605 125.374 129.699 126.175 129.625C127.103 129.544 128.037 129.69 128.896 130.05C129.756 130.41 130.516 130.974 131.111 131.694C131.759 132.492 132.24 133.414 132.525 134.403C132.811 135.392 132.895 136.43 132.772 137.452C132.654 138.521 132.418 139.572 132.066 140.588C131.698 141.602 131.531 142.68 131.574 143.759C131.722 144.821 132.221 145.801 132.992 146.543C133.727 147.312 134.564 147.967 135.335 148.689C136.116 149.388 136.746 150.24 137.186 151.192C137.599 152.111 137.821 153.105 137.839 154.113C137.858 155.071 137.691 156.022 137.346 156.915C137.002 157.747 136.528 158.518 135.94 159.198C134.843 160.509 133.704 161.648 133.158 162.983C132.878 163.601 132.758 164.28 132.808 164.956C132.869 165.556 133.097 166.126 133.466 166.602C133.782 167.019 134.234 167.312 134.742 167.43C135.174 167.509 135.62 167.424 135.994 167.192C136.261 167.047 136.49 166.84 136.662 166.588C136.833 166.336 136.942 166.046 136.979 165.743C136.982 165.528 136.956 165.314 136.901 165.105Z" fill="#161344"/>
<path d="M90.7095 135.527C89.5823 135.843 88.9712 137.124 88.9712 138.299C89.0719 139.468 89.3272 140.619 89.7306 141.72C90.0391 142.853 90.1874 144.105 89.6297 145.148C88.5025 147.21 85.3404 147.103 83.8157 148.891C81.8757 151.163 83.6852 154.918 82.2851 157.559C81.0096 159.943 77.444 160.718 76.7381 163.353C76.2872 165.028 77.2364 166.852 76.7381 168.521C76.21 170.417 74.1158 171.376 73.0123 173.004C72.499 173.853 72.1999 174.816 72.1409 175.808C72.082 176.8 72.265 177.792 72.6742 178.696C73.4205 180.304 74.5394 181.708 75.9371 182.792C76.1033 182.935 76.2753 183.072 76.4474 183.209L96.8795 178.44L100.973 140.469L90.7095 135.527Z" fill="#161344"/>
<path d="M101.916 128.499C101.177 128.416 100.434 128.615 99.8342 129.056C99.2342 129.498 98.8213 130.15 98.6771 130.883L91.9554 170.78C91.0299 175.466 97.2533 179.555 102.249 180.514C107.297 181.486 107.985 179.048 109 174.625C110.697 167.227 111.284 164.444 111.278 164.491C111.272 164.539 117.852 164.795 120.931 156.742C122.467 152.742 123.695 145.911 124.526 140.296C125.273 135.235 123.28 128.374 118.219 127.873L101.916 128.499Z" fill="#B78876"/>
<path d="M121.53 145.297C121.474 145.575 121.311 145.821 121.077 145.98C120.843 146.139 120.556 146.2 120.278 146.149C120.141 146.132 120.008 146.087 119.889 146.017C119.769 145.947 119.665 145.854 119.582 145.743C119.499 145.631 119.439 145.505 119.406 145.37C119.372 145.235 119.366 145.094 119.388 144.957C119.446 144.679 119.608 144.434 119.842 144.274C120.075 144.114 120.361 144.051 120.64 144.099C120.777 144.117 120.91 144.163 121.03 144.233C121.149 144.303 121.254 144.397 121.337 144.509C121.42 144.621 121.479 144.748 121.513 144.883C121.546 145.019 121.552 145.159 121.53 145.297Z" fill="#161344"/>
<path d="M122.295 144.218C122.135 144.331 121.458 143.562 120.313 143.318C119.168 143.073 118.213 143.473 118.118 143.318C118.071 143.24 118.255 143.02 118.676 142.829C119.239 142.593 119.86 142.537 120.456 142.668C121.052 142.793 121.592 143.106 121.998 143.562C122.307 143.896 122.372 144.17 122.295 144.218Z" fill="#161344"/>
<path d="M110.145 142.853C110.089 143.132 109.927 143.377 109.693 143.538C109.459 143.698 109.172 143.76 108.893 143.711C108.757 143.692 108.625 143.646 108.506 143.576C108.387 143.506 108.284 143.412 108.201 143.301C108.118 143.191 108.058 143.064 108.024 142.93C107.99 142.796 107.983 142.656 108.003 142.519C108.061 142.241 108.223 141.996 108.457 141.836C108.69 141.676 108.976 141.613 109.255 141.661C109.392 141.679 109.524 141.724 109.643 141.794C109.762 141.865 109.866 141.958 109.949 142.069C110.032 142.18 110.092 142.306 110.126 142.441C110.159 142.576 110.166 142.716 110.145 142.853Z" fill="#161344"/>
<path d="M111.017 141.661C110.857 141.768 110.181 140.999 109.036 140.755C107.891 140.51 106.93 140.91 106.841 140.755C106.793 140.677 106.977 140.457 107.398 140.266C107.962 140.033 108.582 139.977 109.178 140.105C109.773 140.232 110.313 140.545 110.721 140.999C111.029 141.327 111.095 141.601 111.017 141.661Z" fill="#161344"/>
<path d="M113.355 150.733C113.997 150.671 114.645 150.691 115.283 150.793C115.586 150.823 115.876 150.829 115.965 150.638C116.058 150.341 116.058 150.023 115.965 149.726L115.574 147.306C115.052 143.872 114.737 141.07 114.88 141.053C115.022 141.035 115.55 143.801 116.066 147.24C116.185 148.081 116.303 148.891 116.416 149.66C116.525 150.057 116.491 150.479 116.321 150.852C116.255 150.95 116.166 151.03 116.063 151.087C115.96 151.144 115.845 151.176 115.728 151.18C115.557 151.191 115.385 151.179 115.218 151.145C114.582 151.085 113.956 150.947 113.355 150.733Z" fill="#161344"/>
<path d="M111.26 164.485C107.348 163.706 103.728 161.849 100.807 159.121C100.807 159.121 102.355 165.594 110.809 166.59L111.26 164.485Z" fill="#AA6550"/>
<path d="M112.287 153.398C112.131 153.071 111.894 152.79 111.599 152.581C111.304 152.372 110.961 152.243 110.602 152.206C110.346 152.175 110.086 152.197 109.838 152.27C109.59 152.342 109.36 152.465 109.16 152.629C108.963 152.784 108.819 152.998 108.75 153.24C108.68 153.482 108.689 153.74 108.775 153.976C108.914 154.223 109.123 154.422 109.376 154.547C109.629 154.673 109.913 154.719 110.193 154.68C110.774 154.605 111.335 154.415 111.842 154.119C111.989 154.051 112.123 153.958 112.239 153.845C112.295 153.792 112.333 153.723 112.349 153.647C112.365 153.572 112.358 153.493 112.328 153.422" fill="#AA6550"/>
<path d="M109.825 150.805C110.015 150.835 109.754 152.081 110.626 153.189C111.498 154.298 112.85 154.447 112.821 154.62C112.821 154.703 112.477 154.799 111.913 154.697C111.186 154.551 110.533 154.152 110.068 153.571C109.622 153.011 109.41 152.3 109.475 151.586C109.54 151.061 109.753 150.781 109.825 150.805Z" fill="#161344"/>
<path d="M111.96 139.425C111.776 139.717 110.667 139.324 109.297 139.199C107.926 139.074 106.757 139.199 106.639 138.889C106.585 138.74 106.841 138.484 107.339 138.293C108.001 138.049 108.71 137.959 109.412 138.03C110.114 138.102 110.79 138.332 111.391 138.704C111.842 138.99 112.038 139.276 111.96 139.425Z" fill="#161344"/>
<path d="M122.58 142.149C122.325 142.37 121.595 141.929 120.652 141.714C119.708 141.5 118.872 141.512 118.741 141.202C118.688 141.053 118.866 140.82 119.269 140.647C119.803 140.453 120.382 140.421 120.933 140.557C121.484 140.693 121.983 140.99 122.366 141.41C122.645 141.75 122.698 142.042 122.58 142.149Z" fill="#161344"/>
<path d="M107.926 126.967C107.128 126.097 106.152 125.41 105.066 124.952C103.98 124.494 102.809 124.277 101.631 124.314C99.288 124.475 97.0277 126.073 96.47 128.32C96.1081 129.78 96.3988 131.473 95.4674 132.66C94.536 133.846 92.946 133.971 91.6764 134.651C90.69 135.199 89.9147 136.063 89.4738 137.106C89.033 138.148 88.9521 139.309 89.244 140.403C89.7898 142.263 91.4273 143.896 91.184 145.816C90.9526 147.604 89.1491 148.796 88.4135 150.453C87.6007 152.289 88.2355 154.501 89.4754 156.104C90.7153 157.708 92.4833 158.822 94.2215 159.907C95.5683 160.754 97.0218 161.63 98.6117 161.612C99.5514 161.566 100.456 161.241 101.212 160.678C101.967 160.114 102.538 159.338 102.854 158.447C103.139 157.554 103.228 156.61 103.117 155.679C103.005 154.748 102.695 153.852 102.207 153.052C101.394 151.651 100.119 150.328 100.196 148.719C100.32 146.215 103.613 144.85 103.957 142.364C104.141 141.088 103.476 139.855 102.966 138.656C102.456 137.458 102.088 136.016 102.794 134.931C103.708 133.524 105.808 133.56 107.262 132.695C107.867 132.329 108.359 131.8 108.682 131.169C109.005 130.537 109.146 129.827 109.089 129.119C109.011 128.41 108.742 127.736 108.311 127.168C107.881 126.601 107.304 126.163 106.645 125.9" fill="#161344"/>
<path d="M107.44 124.898C107.256 125.734 107.258 126.6 107.445 127.434C107.633 128.268 108.001 129.051 108.524 129.726C109.047 130.401 109.712 130.952 110.471 131.34C111.23 131.727 112.064 131.942 112.915 131.968C114.227 132.01 115.751 131.664 116.7 132.564C117.65 133.464 117.371 135.277 118.201 136.391C119.388 137.977 121.963 137.285 123.701 138.239C125.036 138.978 125.635 140.54 126.341 141.905C127.047 143.27 128.228 144.671 129.752 144.558C129.988 143.253 130.073 141.925 130.007 140.6C129.931 139.27 129.401 138.007 128.506 137.023C128.002 136.505 127.361 136.123 126.911 135.557C125.926 134.365 126.015 132.576 125.57 131.098C125.273 130.129 124.751 129.245 124.046 128.519C123.341 127.793 122.475 127.247 121.518 126.925C119.928 126.401 118.142 126.532 116.641 125.787C115.532 125.232 114.671 124.243 113.532 123.76C111.314 122.818 108.786 124.022 106.769 125.322" fill="#161344"/>
<path d="M77.1535 172.896C76.9316 172.859 76.716 172.791 76.5127 172.694C75.9284 172.413 75.4258 171.986 75.0533 171.454C74.4423 170.613 74.1595 169.576 74.2583 168.539C74.4006 167.169 75.0331 165.898 76.0381 164.962C76.5899 164.444 77.2247 164.015 77.8832 163.52C78.5612 163.054 79.0776 162.387 79.3604 161.612C79.5122 160.735 79.5122 159.837 79.3604 158.96C79.3018 157.972 79.5066 156.986 79.9537 156.104C80.4221 155.177 81.1185 154.385 81.9767 153.803C82.8748 153.198 83.9271 152.865 85.0083 152.844C86.0881 152.79 87.1737 152.903 88.2475 152.76C88.777 152.696 89.2877 152.523 89.7485 152.253C90.2068 151.961 90.5778 151.549 90.8223 151.061C91.2535 150.038 91.5641 148.968 91.7478 147.872C91.8705 147.324 92.0598 146.794 92.3114 146.292C92.5739 145.789 92.9497 145.354 93.409 145.023C94.3329 144.478 95.3553 144.124 96.4168 143.98C97.3939 143.843 98.3305 143.497 99.1636 142.966C99.5421 142.701 99.8432 142.339 100.036 141.917C100.215 141.5 100.294 141.047 100.267 140.594C100.167 139.703 99.9515 138.829 99.6264 137.995C99.3241 137.186 99.1888 136.324 99.2289 135.461C99.2617 135.041 99.3895 134.633 99.6027 134.269C99.8171 133.93 100.108 133.646 100.451 133.441C101.092 133.108 101.791 132.906 102.51 132.844C103.132 132.777 103.751 132.672 104.361 132.528C105.326 132.264 106.179 131.688 106.787 130.889C107.176 130.39 107.465 129.819 107.635 129.208C107.748 128.785 107.76 128.552 107.778 128.552C107.777 128.778 107.749 129.002 107.695 129.22C107.55 129.854 107.273 130.449 106.882 130.967C106.27 131.802 105.4 132.409 104.408 132.695C103.793 132.85 103.169 132.965 102.539 133.041C101.849 133.11 101.178 133.312 100.564 133.637C100.246 133.83 99.9794 134.098 99.7881 134.418C99.5968 134.738 99.4863 135.1 99.4662 135.473C99.4376 136.305 99.5747 137.134 99.8696 137.911C100.21 138.763 100.433 139.658 100.534 140.57C100.568 141.067 100.485 141.566 100.291 142.024C100.082 142.501 99.7505 142.913 99.3297 143.217C98.4652 143.774 97.4924 144.14 96.4761 144.29C95.4544 144.427 94.4701 144.767 93.581 145.291C92.7589 145.963 92.2119 146.916 92.0444 147.968C91.8584 149.089 91.5398 150.183 91.0952 151.228C90.8234 151.759 90.4133 152.206 89.9087 152.522C89.4107 152.816 88.8571 153.003 88.2831 153.07C87.1559 153.219 86.0643 153.1 85.0142 153.154C84.0089 153.181 83.0299 153.483 82.1823 154.027C81.3347 154.571 80.6504 155.336 80.2029 156.241C79.7672 157.074 79.5623 158.008 79.6096 158.948C79.7669 159.857 79.7669 160.787 79.6096 161.696C79.303 162.518 78.7494 163.224 78.0256 163.717C77.3789 164.217 76.7263 164.635 76.1864 165.129C75.2018 166.019 74.5698 167.236 74.4066 168.557C74.2985 169.557 74.5534 170.562 75.1245 171.388C75.4793 171.924 75.963 172.36 76.5305 172.658C76.928 172.831 77.1594 172.879 77.1535 172.896Z" fill="#455A64"/>
<path d="M126.365 185.528C126.548 185.35 126.721 185.161 126.881 184.962C127.307 184.357 127.545 183.639 127.563 182.899C127.603 181.73 127.33 180.571 126.774 179.543C126.181 178.309 125.255 177.033 124.638 175.37C124.008 173.544 124.008 171.558 124.638 169.731C124.981 168.716 125.512 167.775 126.205 166.959C126.922 166.125 127.795 165.427 128.489 164.539C129.183 163.651 129.675 162.512 129.331 161.404C128.987 160.295 127.99 159.514 127.112 158.644C126.642 158.208 126.241 157.701 125.926 157.141C125.622 156.556 125.438 155.916 125.386 155.258C125.304 153.928 125.525 152.597 126.033 151.365C126.513 150.113 127.148 148.981 127.676 147.789C128.233 146.667 128.592 145.457 128.738 144.212C128.819 143.036 128.631 141.857 128.187 140.766C127.744 139.675 127.058 138.7 126.181 137.917C125.295 137.258 124.366 136.66 123.398 136.129C122.925 135.836 122.52 135.443 122.212 134.978C121.949 134.513 121.78 134.001 121.714 133.47C121.655 132.989 121.5 132.524 121.257 132.105C121.004 131.716 120.657 131.398 120.248 131.181C119.442 130.798 118.591 130.519 117.715 130.353C116.892 130.195 116.094 129.926 115.342 129.554C114.688 129.204 114.089 128.76 113.562 128.236C112.708 127.398 112.049 126.38 111.634 125.256C111.37 124.557 111.216 123.821 111.177 123.074C111.158 122.814 111.158 122.553 111.177 122.293C111.186 123.292 111.372 124.282 111.729 125.214C112.158 126.302 112.818 127.283 113.663 128.087C114.18 128.594 114.77 129.02 115.413 129.351C116.144 129.707 116.918 129.966 117.715 130.12C118.614 130.278 119.488 130.557 120.313 130.949C120.761 131.179 121.141 131.522 121.417 131.944C121.677 132.392 121.849 132.886 121.921 133.399C121.982 133.896 122.141 134.377 122.39 134.811C122.675 135.243 123.049 135.607 123.487 135.879C124.468 136.406 125.41 137.004 126.305 137.667C127.223 138.479 127.942 139.493 128.405 140.631C128.868 141.768 129.063 142.998 128.975 144.224C128.834 145.504 128.468 146.749 127.895 147.902C127.361 149.094 126.709 150.221 126.264 151.437C125.775 152.625 125.558 153.908 125.629 155.192C125.676 155.817 125.85 156.425 126.139 156.981C126.44 157.514 126.822 157.997 127.272 158.411C127.712 158.84 128.18 159.252 128.595 159.711C129.035 160.16 129.368 160.705 129.568 161.302C129.735 161.906 129.717 162.546 129.515 163.138C129.325 163.706 129.035 164.234 128.661 164.7C127.943 165.618 127.059 166.315 126.365 167.12C125.689 167.906 125.17 168.815 124.834 169.797C124.221 171.571 124.221 173.501 124.834 175.275C125.427 176.884 126.341 178.178 126.922 179.448C127.476 180.507 127.735 181.698 127.67 182.893C127.639 183.65 127.376 184.379 126.917 184.979C126.765 185.193 126.579 185.378 126.365 185.528Z" fill="#455A64"/>
<path d="M119.673 178.446C123.022 181.975 124.857 186.685 124.781 191.56C124.626 199.715 125.938 214.504 125.938 214.504L148.393 228.298L142.057 238.05L117.317 227.022L112.126 216.346L119.673 178.446Z" fill="#FFD400"/>
<path d="M126.537 234.325C126.537 234.325 127.373 232.709 125.018 231.475H121.203L113.758 218.558L119.69 178.446L109.534 170.697L87.0549 168.688L79.1941 209.283L89.2381 227.732L109.16 235.952L126.537 234.325Z" fill="#FFD400"/>
<path d="M91.0242 168.98L91.4751 165.153C91.4917 164.978 91.5465 164.809 91.6355 164.658C91.7245 164.508 91.8456 164.378 91.9901 164.28C92.1346 164.181 92.299 164.116 92.4714 164.089C92.6439 164.061 92.8203 164.073 92.9879 164.122C98.5587 168.509 104.26 170.732 110.335 168.98C110.731 169.09 111.068 169.351 111.275 169.708C111.482 170.064 111.543 170.487 111.444 170.887L109.071 180.473L102.919 182.327L94.7974 180.729L91.0005 173.683L91.0242 168.98Z" fill="#FFD400"/>
<path d="M110.495 171.621C110.268 171.799 110.019 171.948 109.754 172.062C109.071 172.419 108.358 172.714 107.624 172.944C105.187 173.724 102.588 173.837 100.093 173.272C97.5986 172.706 95.2995 171.482 93.4329 169.725C92.8704 169.201 92.3542 168.628 91.8904 168.014C91.7101 167.796 91.5549 167.558 91.4276 167.305C92.1029 168.098 92.8219 168.852 93.5812 169.564C95.4521 171.243 97.7179 172.414 100.165 172.968C102.611 173.522 105.158 173.44 107.564 172.73C108.562 172.418 109.541 172.048 110.495 171.621Z" fill="#161344"/>
<g opacity="0.2">
<path opacity="0.2" d="M92.1098 168.05C91.9662 168.419 91.9165 168.819 91.9652 169.212C92.0138 169.606 92.1594 169.981 92.3886 170.303C92.86 170.936 93.4359 171.482 94.0913 171.919C96.2745 173.552 98.5408 175.168 101.151 175.919C103.762 176.67 106.823 176.384 108.828 174.542C109.421 174.011 109.854 173.01 109.255 172.503C108.804 172.121 108.122 172.354 107.576 172.569C104.888 173.601 101.933 173.698 99.1836 172.843C96.4343 171.988 94.05 170.231 92.4124 167.854" fill="black"/>
</g>
<path d="M88.9891 211.476L125.772 231.267L112.518 239.314L87.2093 231.863C73.8074 228.286 70.147 222.707 70.2775 216.96C70.3309 214.856 70.0817 194.308 70.9835 184.264C72.2116 170.554 87.0491 168.706 87.0491 168.706L86.8 180.407L86.9661 194.714L87.4704 207.828C88.8112 207.154 89.1434 209.682 89.1434 209.682L88.9891 211.476Z" fill="#FFD400"/>
<path d="M87.2094 209.425C87.1263 209.425 87.0077 204.46 86.9543 198.338C86.9009 192.216 86.9246 187.244 87.0077 187.239C87.0907 187.233 87.2094 192.204 87.2628 198.332C87.3162 204.46 87.3043 209.425 87.2094 209.425Z" fill="#161344"/>
<path d="M88.8764 212.15C88.8348 212.15 88.9535 211.905 89.0069 211.554C89.0843 211.07 88.9965 210.574 88.7577 210.147C88.5055 209.728 88.1182 209.408 87.6602 209.241C87.3101 209.104 87.0669 209.098 87.0669 209.044C87.0669 208.99 87.3161 208.937 87.7314 209.044C88.0015 209.108 88.2558 209.227 88.4788 209.393C88.7019 209.559 88.889 209.768 89.0288 210.009C89.1687 210.25 89.2583 210.517 89.2923 210.794C89.3262 211.071 89.3038 211.351 89.2264 211.619C89.0959 212.001 88.906 212.174 88.8764 212.15Z" fill="#161344"/>
<path d="M88.8764 212.15C88.8764 212.15 88.8764 212.15 88.9416 212.209L89.1552 212.346C89.351 212.466 89.6417 212.627 90.0214 212.835C90.7748 213.247 91.8783 213.831 93.2428 214.54L103.922 220.054L114.636 225.556L117.869 227.249L118.741 227.72C118.848 227.768 118.948 227.83 119.038 227.905C118.927 227.873 118.819 227.829 118.718 227.774L117.816 227.356L114.535 225.753C111.8 224.388 107.974 222.48 103.821 220.346C99.6679 218.212 95.865 216.227 93.1419 214.749C90.4188 213.27 88.7814 212.269 88.8764 212.15Z" fill="#161344"/>
<path d="M112.916 218.957C112.332 218.875 111.758 218.735 111.201 218.54C110.151 218.236 108.709 217.789 107.131 217.253C105.553 216.716 104.165 216.18 103.127 215.774C102.568 215.583 102.028 215.342 101.513 215.053C102.098 215.179 102.672 215.355 103.228 215.577L107.256 216.96L111.29 218.337C111.849 218.496 112.393 218.703 112.916 218.957Z" fill="#161344"/>
<path d="M103.856 203.745C103.856 203.745 103.815 203.912 103.678 204.18C103.489 204.567 103.262 204.934 103.002 205.277C102.623 205.789 102.193 206.263 101.72 206.69C101.131 207.203 100.491 207.654 99.8101 208.037C99.121 208.404 98.3952 208.698 97.6447 208.913C97.0298 209.08 96.3997 209.184 95.7641 209.223C95.3379 209.264 94.9088 209.264 94.4826 209.223C94.186 209.187 94.0199 209.157 94.0258 209.134C94.0317 209.11 94.6902 209.134 95.7463 209.026C96.3627 208.955 96.9719 208.831 97.5676 208.657C98.2912 208.431 98.9923 208.137 99.6618 207.78C100.326 207.413 100.952 206.98 101.531 206.487C102.002 206.084 102.437 205.639 102.83 205.158C103.5 204.311 103.821 203.721 103.856 203.745Z" fill="#161344"/>
<path d="M87.0671 183.865C87.0196 183.865 86.9425 183.036 86.7467 181.701C86.5285 179.967 86.065 178.272 85.3704 176.67C84.6603 175.077 83.5527 173.695 82.1549 172.658C81.5549 172.258 80.924 171.907 80.2683 171.609C80.4731 171.62 80.6742 171.668 80.8616 171.752C81.3694 171.933 81.8535 172.175 82.3032 172.473C83.7784 173.49 84.9448 174.897 85.6729 176.539C86.384 178.169 86.8287 179.904 86.99 181.677C87.0612 182.351 87.0968 182.899 87.1086 183.275C87.1256 183.472 87.1116 183.671 87.0671 183.865Z" fill="#161344"/>
<path d="M126.258 214.451C125.932 214.685 125.619 214.938 125.321 215.208C124.637 215.906 124.039 216.684 123.541 217.527C123.034 218.356 122.635 219.248 122.354 220.179C122.153 220.895 122.147 221.372 122.093 221.372C122.011 220.96 122.029 220.535 122.147 220.132C122.369 219.156 122.75 218.223 123.274 217.372C123.776 216.506 124.408 215.724 125.149 215.053C125.445 214.739 125.834 214.528 126.258 214.451Z" fill="#161344"/>
<g opacity="0.2">
<path opacity="0.2" d="M120.782 228.96C122.004 226.605 121.702 223.75 121.014 221.211C120.325 218.671 119.281 216.15 119.08 213.503C118.907 211.208 119.388 208.919 119.845 206.666C120.302 204.412 120.747 202.117 120.509 199.828C120.272 197.539 119.252 195.221 117.341 193.957C118.181 195.828 118.779 197.799 119.121 199.822C119.452 201.866 118.989 203.96 117.828 205.67C117.193 206.505 116.339 207.19 115.923 208.156C115.378 209.438 115.461 210.892 115.057 212.174C114.612 213.586 113.805 218.319 113.805 218.319C113.752 218.582 115.2 221.258 116.629 223.166C118.059 225.073 119.797 226.796 120.836 228.948" fill="black"/>
</g>
<path d="M120.871 228.799C120.871 228.799 120.818 228.745 120.723 228.626L120.319 228.083L118.83 226.009C117.549 224.185 115.763 221.646 113.639 218.635L113.61 218.588V218.528L115.544 209.02C115.621 208.657 115.692 208.299 115.763 207.947V207.905V207.87C117.906 205.713 119.123 202.798 119.151 199.751C119.069 197.408 118.237 195.154 116.778 193.325V193.295C116.683 191.775 116.606 190.559 116.552 189.689C116.552 189.289 116.517 188.973 116.505 188.729C116.493 188.618 116.493 188.506 116.505 188.395C116.537 188.501 116.555 188.612 116.558 188.723C116.558 188.967 116.612 189.283 116.653 189.677C116.73 190.547 116.837 191.763 116.968 193.253V193.2C118.486 195.054 119.357 197.357 119.447 199.757C119.481 201.239 119.202 202.712 118.629 204.078C118.022 205.58 117.132 206.948 116.006 208.108L116.048 208.031C115.977 208.376 115.906 208.74 115.828 209.104C115.14 212.507 114.5 215.738 113.906 218.558V218.45L119.002 225.89C119.596 226.778 120.082 227.487 120.426 228.006L120.794 228.572C120.842 228.727 120.883 228.799 120.871 228.799Z" fill="#161344"/>
<g opacity="0.2">
<path opacity="0.2" d="M94.2039 209.324C93.842 209.032 93.2665 209.485 93.2903 209.95C93.3293 210.181 93.423 210.399 93.5635 210.586C93.7039 210.772 93.8869 210.922 94.0971 211.023C95.2191 211.653 96.5104 211.912 97.7872 211.762C99.3847 211.673 100.905 211.043 102.1 209.974C102.688 209.438 103.13 208.761 103.385 208.006C103.64 207.251 103.7 206.443 103.56 205.658C103.54 205.53 103.486 205.408 103.405 205.307C103.103 204.997 102.605 205.342 102.308 205.658C100.247 207.832 97.437 209.133 94.4531 209.294" fill="black"/>
</g>
<g opacity="0.2">
<path opacity="0.2" d="M87.0434 209.062C86.3567 208.781 85.5983 208.729 84.8803 208.915C84.1623 209.101 83.5229 209.514 83.0566 210.093C82.8882 210.263 82.7748 210.481 82.7314 210.717C82.688 210.953 82.7166 211.197 82.8134 211.416C82.9304 211.576 83.0931 211.696 83.2797 211.76C83.4663 211.823 83.668 211.829 83.8575 211.774C84.2366 211.652 84.5847 211.448 84.878 211.178C85.5602 210.647 86.2306 210.099 86.8773 209.533C86.979 209.463 87.0591 209.366 87.1087 209.253C87.1323 209.197 87.1344 209.134 87.1147 209.077C87.095 209.02 87.0548 208.972 87.0019 208.943" fill="black"/>
</g>
<path d="M83.9344 212.18C83.8988 212.18 83.9344 211.876 84.1124 211.434C84.3602 210.863 84.7299 210.353 85.1953 209.941C85.6607 209.529 86.2105 209.225 86.8058 209.05C87.0446 208.953 87.3058 208.926 87.5592 208.973C86.7805 209.251 86.0513 209.654 85.3998 210.165C84.8098 210.756 84.3154 211.435 83.9344 212.18Z" fill="#161344"/>
<path d="M73.0127 191.858C72.9129 190.085 72.9129 188.308 73.0127 186.535C73.0197 184.76 73.1267 182.987 73.333 181.224C73.44 182.995 73.44 184.77 73.333 186.541C73.3291 188.318 73.2221 190.094 73.0127 191.858Z" fill="#FAFAFA"/>
<path d="M75.6526 200.174C75.5695 200.174 75.4924 197.313 75.4864 193.79C75.4805 190.267 75.5517 187.412 75.6348 187.412C75.7178 187.412 75.7949 190.267 75.8009 193.79C75.8068 197.313 75.7356 200.174 75.6526 200.174Z" fill="#FAFAFA"/>
<path d="M80.3989 179.096C80.4672 179.576 80.4831 180.061 80.4464 180.544C80.4464 181.439 80.4108 182.673 80.3574 184.032C80.304 185.391 80.2387 186.625 80.1735 187.519C80.1756 188.003 80.1199 188.485 80.0074 188.955C79.9387 188.478 79.9228 187.994 79.9599 187.513C79.9599 186.619 79.9955 185.385 80.0489 184.02C80.1023 182.655 80.1676 181.421 80.2328 180.533C80.23 180.049 80.2857 179.566 80.3989 179.096Z" fill="#FAFAFA"/>
<path d="M83.8693 196.21C83.7131 194.845 83.6615 193.47 83.715 192.097C83.6688 190.726 83.7224 189.353 83.8752 187.99C84.0273 189.353 84.0769 190.726 84.0235 192.097C84.0734 193.47 84.0219 194.845 83.8693 196.21Z" fill="#FAFAFA"/>
<path d="M79.9714 205.587C79.8846 204.296 79.8985 203.001 80.0129 201.712C80.028 200.418 80.1431 199.126 80.357 197.849C80.4388 200.439 80.3099 203.031 79.9714 205.599V205.587Z" fill="#FAFAFA"/>
<path d="M72.0277 213.413C71.7786 210.876 71.7349 208.322 71.8972 205.777C72.1464 208.315 72.19 210.869 72.0277 213.413Z" fill="#FAFAFA"/>
<path d="M75.6289 213.998C75.5272 213.078 75.5272 212.151 75.6289 211.232C75.6296 210.307 75.7311 209.386 75.9315 208.484C76.0332 209.403 76.0332 210.33 75.9315 211.25C75.9337 212.174 75.8322 213.096 75.6289 213.998Z" fill="#FAFAFA"/>
<path d="M94.6785 218.349C93.4303 217.911 92.236 217.331 91.1189 216.621C89.9502 215.999 88.8538 215.25 87.85 214.385C87.8974 214.308 89.3925 215.261 91.2731 216.352C93.1538 217.443 94.72 218.272 94.6785 218.349Z" fill="#FAFAFA"/>
<path d="M106.787 224.727C106.36 224.612 105.949 224.442 105.565 224.221C103.654 223.264 101.861 222.083 100.226 220.704C99.8689 220.438 99.5496 220.126 99.2766 219.774C99.3359 219.702 100.878 221.002 102.949 222.361C105.019 223.72 106.847 224.644 106.787 224.727Z" fill="#FAFAFA"/>
<path d="M107.565 228.221C106.557 227.921 105.581 227.522 104.652 227.028C103.679 226.633 102.749 226.14 101.875 225.556C102.881 225.856 103.855 226.255 104.782 226.748C105.754 227.149 106.686 227.642 107.565 228.221Z" fill="#FAFAFA"/>
<path d="M115.769 231.076C115.722 231.153 114.369 230.295 112.607 229.407C110.845 228.519 109.362 227.928 109.391 227.845C111.715 228.471 113.886 229.571 115.769 231.076Z" fill="#FAFAFA"/>
<path d="M113.734 235.165C112.992 234.825 112.278 234.427 111.599 233.973C110.869 233.613 110.167 233.198 109.499 232.733C110.299 232.921 111.06 233.25 111.747 233.705C112.487 234.076 113.159 234.569 113.734 235.165Z" fill="#FAFAFA"/>
<path d="M85.1211 210.516C84.9382 209.711 84.8545 208.886 84.8719 208.06C84.7901 207.237 84.808 206.406 84.9253 205.587C85.1155 206.391 85.2013 207.216 85.1804 208.042C85.2659 208.866 85.2459 209.698 85.1211 210.516Z" fill="#FAFAFA"/>
<path d="M103.228 194.183C102.932 193.064 102.734 191.921 102.634 190.768C102.434 189.63 102.339 188.477 102.35 187.322C102.649 188.438 102.848 189.58 102.943 190.732C103.143 191.871 103.239 193.026 103.228 194.183Z" fill="#FAFAFA"/>
<path d="M105.197 204.329C105.027 203.129 104.958 201.916 104.99 200.705C104.922 199.496 104.957 198.283 105.096 197.08C105.266 198.281 105.334 199.493 105.298 200.705C105.369 201.913 105.335 203.126 105.197 204.329Z" fill="#FAFAFA"/>
<path d="M93.2546 205.777C92.6488 203.577 92.4854 201.277 92.774 199.012C92.863 199.012 92.8512 200.532 92.9817 202.397C93.1122 204.263 93.3436 205.759 93.2546 205.777Z" fill="#FAFAFA"/>
<path d="M97.3425 215.744C96.9947 214.721 96.7949 213.653 96.7492 212.573C96.6099 211.504 96.6219 210.42 96.7848 209.354C96.9296 210.414 97.0207 211.48 97.0578 212.549C97.2179 214.308 97.4315 215.726 97.3425 215.744Z" fill="#FAFAFA"/>
<path d="M99.1103 201.426C98.9046 199.112 98.9046 196.784 99.1103 194.469C99.3159 196.784 99.3159 199.112 99.1103 201.426Z" fill="#FAFAFA"/>
<path d="M94.1982 189.438C94.4117 191.172 94.4117 192.926 94.1982 194.66C93.9924 192.926 93.9924 191.173 94.1982 189.438Z" fill="#FAFAFA"/>
<path d="M99.2172 180.646C99.4544 182.181 99.4863 183.74 99.3121 185.284C99.1469 184.522 99.0792 183.743 99.1104 182.965C99.0463 182.19 99.0822 181.411 99.2172 180.646Z" fill="#FAFAFA"/>
<path d="M108.419 190.314C108.161 188.685 108.007 187.04 107.956 185.391C107.802 183.75 107.749 182.102 107.796 180.455C108.058 182.082 108.214 183.725 108.264 185.373C108.415 187.015 108.466 188.666 108.419 190.314Z" fill="#FAFAFA"/>
<path d="M111.421 207.709C111.268 205.877 111.216 204.038 111.266 202.201C111.216 200.363 111.268 198.524 111.421 196.693C111.577 198.524 111.629 200.363 111.575 202.201C111.629 204.038 111.577 205.877 111.421 207.709Z" fill="#FAFAFA"/>
<path d="M106.034 216.603C105.827 214.024 105.827 211.432 106.034 208.853C106.24 211.432 106.24 214.024 106.034 216.603Z" fill="#FAFAFA"/>
<path d="M110.94 221.825C110.789 221.341 110.737 220.832 110.786 220.328C110.737 219.822 110.79 219.312 110.94 218.826C111.094 219.311 111.146 219.822 111.094 220.328C111.146 220.832 111.094 221.342 110.94 221.825Z" fill="#FAFAFA"/>
<path d="M114.215 185.283C114.42 187.631 114.42 189.993 114.215 192.341C114.009 189.993 114.009 187.631 114.215 185.283Z" fill="#FAFAFA"/>
<path d="M110.845 173.004C110.998 174.562 111.049 176.13 110.999 177.695C111.049 179.26 110.998 180.828 110.845 182.386C110.693 180.828 110.641 179.26 110.691 177.695C110.641 176.13 110.693 174.562 110.845 173.004Z" fill="#FAFAFA"/>
<path d="M104.497 174.261C104.703 176.385 104.703 178.523 104.497 180.646C104.292 178.523 104.292 176.385 104.497 174.261Z" fill="#FAFAFA"/>
<path d="M119.062 188.836C118.651 186.273 118.605 183.663 118.925 181.087C119.014 181.087 118.985 182.833 119.026 184.973C119.068 187.113 119.151 188.824 119.062 188.836Z" fill="#FAFAFA"/>
<path d="M121.85 195.358C121.644 192.733 121.644 190.096 121.85 187.471C122.056 190.096 122.056 192.733 121.85 195.358Z" fill="#FAFAFA"/>
<path d="M123.565 206.815C123.359 204.108 123.359 201.39 123.565 198.684C123.77 201.39 123.77 204.108 123.565 206.815Z" fill="#FAFAFA"/>
<path d="M119.643 213.097C119.438 210.226 119.438 207.343 119.643 204.472C119.849 207.343 119.849 210.226 119.643 213.097Z" fill="#FAFAFA"/>
<path d="M116.576 220.346C116.37 217.309 116.37 214.262 116.576 211.226C116.732 212.74 116.784 214.264 116.73 215.786C116.784 217.308 116.732 218.831 116.576 220.346Z" fill="#FAFAFA"/>
<path d="M123.322 216.549C123.116 214.789 123.116 213.01 123.322 211.25C123.527 213.01 123.527 214.789 123.322 216.549Z" fill="#FAFAFA"/>
<path d="M129.925 229.443C128.381 228.961 126.869 228.382 125.398 227.708C123.889 227.131 122.418 226.456 120.996 225.687C122.538 226.169 124.048 226.749 125.517 227.422C127.028 227.999 128.5 228.674 129.925 229.443Z" fill="#FAFAFA"/>
<path d="M137.78 227.058C136.135 226.637 134.518 226.113 132.939 225.49C131.32 224.968 129.735 224.347 128.192 223.63C129.836 224.055 131.452 224.579 133.033 225.198C134.65 225.724 136.235 226.345 137.78 227.058Z" fill="#FAFAFA"/>
<path d="M132.244 221.783C131.122 221.38 130.036 220.882 128.999 220.292C127.915 219.789 126.876 219.19 125.896 218.504C127.019 218.906 128.104 219.405 129.141 219.994C130.226 220.497 131.265 221.095 132.244 221.783Z" fill="#FAFAFA"/>
<path d="M80.0072 172.968C80.0725 173.039 79.1292 173.898 78.1977 175.15C77.2663 176.402 76.6908 177.534 76.6078 177.492C76.878 176.564 77.3365 175.701 77.9545 174.959C78.4927 174.158 79.192 173.48 80.0072 172.968Z" fill="#FAFAFA"/>
<path d="M88.1288 175.233C87.8513 174.648 87.669 174.022 87.5889 173.379C87.4031 172.759 87.3229 172.112 87.3516 171.466C87.6254 172.05 87.8075 172.673 87.8915 173.314C88.0704 173.937 88.1505 174.585 88.1288 175.233Z" fill="#FAFAFA"/>
<path d="M122.087 236.816L161.332 217.67C163.301 216.706 165.479 216.255 167.667 216.359C169.854 216.463 171.981 217.119 173.85 218.266C175.462 219.255 176.84 220.584 177.891 222.161C178.942 223.738 179.639 225.526 179.935 227.4C180.231 229.274 180.119 231.191 179.606 233.017C179.093 234.844 178.192 236.536 176.965 237.979L159.962 257.972L116.552 264.004L112.488 239.302L117.318 231.791L122.087 236.816Z" fill="#161344"/>
<path d="M145.795 244.995C145.653 245.149 145.491 245.283 145.314 245.394C144.994 245.633 144.519 245.99 143.932 246.378C142.745 247.189 141.102 248.268 139.233 249.4C137.364 250.533 135.644 251.492 134.38 252.16C133.745 252.494 133.229 252.756 132.867 252.929C132.681 253.035 132.481 253.115 132.274 253.168C132.429 253.029 132.603 252.912 132.79 252.822L134.25 251.963C135.484 251.248 137.186 250.259 139.049 249.132C140.912 248.005 142.579 246.956 143.795 246.193L145.231 245.293C145.405 245.169 145.594 245.068 145.795 244.995Z" fill="#455A64"/>
<path d="M62.8855 246.467C62.8855 246.467 66.7832 227.559 68.8182 224.65C70.8531 221.741 75.0534 215.226 80.3987 214.558C85.744 213.89 96.6661 220.328 98.6535 222.856C103.684 229.264 135.436 263.033 135.044 262.592L124.811 269.679L113.995 266.246H82.9676C82.9676 266.246 61.4735 262.592 62.8855 246.467Z" fill="#161344"/>
<path d="M113.996 266.246C113.837 266.251 113.678 266.241 113.521 266.216C113.067 266.177 112.617 266.105 112.174 266.001C110.54 265.604 108.95 265.043 107.428 264.326C102.449 261.946 97.7645 258.989 93.4685 255.516C89.054 252.203 84.8751 248.583 80.9625 244.685C79.7817 243.497 78.6966 242.218 77.7173 240.858C77.4492 240.487 77.2055 240.098 76.9876 239.695C76.9015 239.564 76.828 239.424 76.7681 239.278C76.8739 239.396 76.9655 239.526 77.041 239.666C77.2249 239.922 77.4385 240.327 77.8122 240.786C78.825 242.112 79.9292 243.365 81.1167 244.536C85.0662 248.376 89.2553 251.96 93.6583 255.266C97.9461 258.718 102.602 261.681 107.541 264.1C109.036 264.836 110.595 265.435 112.198 265.888C112.791 266.019 113.218 266.121 113.527 266.156C113.685 266.172 113.842 266.201 113.996 266.246Z" fill="#455A64"/>
<path d="M100.089 262.02C99.9609 262.111 99.8261 262.192 99.6859 262.264L98.4994 262.92C97.9832 263.2 97.3129 263.462 96.5535 263.808C96.1738 263.987 95.7407 264.1 95.2958 264.267C94.8291 264.444 94.3539 264.597 93.8719 264.726C91.5111 265.406 89.0718 265.773 86.6163 265.817C83.595 265.881 80.5812 265.489 77.6757 264.654C74.7692 263.818 72.0193 262.507 69.5361 260.774C68.9784 260.35 68.4148 259.975 67.9106 259.546C67.4216 259.126 66.969 258.665 66.5579 258.169C65.8195 257.281 65.1789 256.316 64.6476 255.29C63.8525 253.819 63.3072 252.225 63.0339 250.574C62.9584 250.127 62.9187 249.675 62.9153 249.221C62.9023 249.064 62.9023 248.907 62.9153 248.75C62.9509 248.75 62.9153 249.4 63.1407 250.539C63.4543 252.162 64.023 253.726 64.8256 255.17C65.3655 256.171 66.0056 257.114 66.7359 257.984C67.1446 258.464 67.591 258.911 68.0707 259.319C68.5691 259.736 69.1327 260.106 69.6844 260.511C72.1528 262.21 74.8771 263.498 77.7529 264.326C80.6268 265.16 83.6076 265.561 86.5985 265.519C89.0401 265.489 91.4682 265.149 93.8244 264.505C94.3347 264.398 94.7974 264.207 95.2483 264.07C95.6992 263.933 96.1204 263.802 96.5001 263.635C97.2595 263.307 97.9358 263.039 98.4579 262.8L99.6444 262.204C99.7854 262.126 99.9346 262.064 100.089 262.02Z" fill="#455A64"/>
<path d="M134.119 261.477C134.059 261.537 126.359 253.388 116.914 243.278C107.469 233.168 99.8753 224.924 99.9347 224.87C99.994 224.817 107.701 232.954 117.139 243.069C126.578 253.185 134.184 261.423 134.119 261.477Z" fill="#455A64"/>
<path d="M102.094 261.334C102.094 261.334 95.076 264.207 95.8116 267.492C96.5473 270.776 100.16 272.302 103.821 271.951C107.481 271.599 114.215 268.571 114.215 268.571L117.679 266.723C117.679 266.723 113.467 266.657 111.337 265.894C108.869 265.006 102.094 261.334 102.094 261.334Z" fill="#FFD400"/>
<path d="M110.774 267.098L135.691 271.033L188.29 265.763L159.451 257.823L110.803 264.851C110.535 264.89 110.289 265.024 110.112 265.23C109.934 265.436 109.836 265.699 109.836 265.972C109.835 266.24 109.929 266.501 110.1 266.707C110.272 266.913 110.51 267.052 110.774 267.098Z" fill="#455A64"/>
<path d="M142.383 231.219L136.356 267.027C136.281 267.496 136.314 267.975 136.453 268.429C136.591 268.883 136.832 269.299 137.156 269.644C137.48 269.99 137.878 270.256 138.321 270.422C138.763 270.589 139.238 270.651 139.708 270.604L188.278 265.739C188.945 265.673 189.571 265.39 190.064 264.934C190.556 264.478 190.887 263.874 191.007 263.212L197.557 226.993C197.643 226.518 197.617 226.03 197.482 225.568C197.348 225.105 197.108 224.68 196.781 224.327C196.455 223.973 196.051 223.701 195.602 223.532C195.153 223.362 194.67 223.3 194.193 223.351L145.083 228.656C144.417 228.732 143.794 229.022 143.307 229.485C142.82 229.947 142.496 230.556 142.383 231.219Z" fill="#455A64"/>
<path d="M109.819 265.972H109.949L110.335 266.013L111.812 266.222L117.294 267.045L135.857 269.948L135.685 270.073C135.994 268.207 136.308 266.264 136.634 264.279C138.1 255.468 139.423 247.498 140.39 241.698C140.882 238.831 141.28 236.5 141.576 234.867C141.713 234.074 141.825 233.454 141.908 233.007C141.944 232.81 141.98 232.655 142.003 232.53C142.011 232.473 142.025 232.417 142.045 232.363C142.051 232.419 142.051 232.475 142.045 232.53C142.045 232.661 142.009 232.822 141.98 233.019C141.914 233.466 141.819 234.092 141.707 234.885C141.446 236.524 141.078 238.861 140.627 241.734C139.69 247.54 138.396 255.516 136.966 264.326C136.634 266.311 136.32 268.255 136.011 270.126V270.275H135.857L117.288 267.295L111.818 266.383L110.347 266.127L109.967 266.049L109.819 265.972Z" fill="#161344"/>
<path d="M172.723 246.729C172.723 248.673 171.323 250.246 169.596 250.246C167.87 250.246 166.476 248.673 166.476 246.729C166.476 244.786 167.876 243.212 169.596 243.212C171.317 243.212 172.723 244.786 172.723 246.729Z" fill="#FAFAFA"/>
<path d="M99.5318 149.231C100.79 151.097 102.059 152.993 102.759 155.133C103.459 157.273 103.536 159.723 102.445 161.69C101.537 163.323 99.87 164.605 99.5852 166.459C99.1106 169.612 102.878 171.949 103.145 175.126C103.299 176.914 102.273 178.631 101.104 180.02C99.9352 181.409 98.5707 182.673 97.8113 184.324C97.0519 185.975 97.0935 188.157 98.4817 189.349C96.7494 188.86 94.9518 190.708 93.2432 190.136C91.7897 189.653 91.404 187.805 91.2617 186.273C90.9056 186.729 90.6615 187.263 90.5492 187.832C90.4368 188.4 90.4594 188.987 90.615 189.546C89.3196 188.172 88.481 186.428 88.2153 184.555C87.9496 182.682 88.2699 180.772 89.1318 179.09C90.176 177.141 91.9558 175.424 91.9558 173.254C91.9261 170.87 89.7014 169.081 89.0784 166.739C88.6454 165.153 89.0013 163.466 89.4759 161.892C89.9505 160.319 90.5557 158.751 90.6209 157.124C90.6862 155.496 90.5379 154.823 89.1378 153.976" fill="#161344"/>
<path d="M95.1708 188.985H95.0402C94.9132 188.961 94.7897 188.921 94.6724 188.866C94.2077 188.661 93.815 188.32 93.5452 187.888C93.1078 187.21 92.8902 186.413 92.9223 185.605C93.0063 184.542 93.3821 183.522 94.008 182.661C94.6428 181.683 95.5327 180.759 96.3514 179.68C97.1701 178.601 97.965 177.331 97.965 175.829C97.965 174.327 97.1523 172.879 96.2327 171.519C95.3131 170.16 94.2393 168.712 93.913 166.9C93.7525 166.001 93.8857 165.075 94.2927 164.259C94.7037 163.5 95.2256 162.806 95.8412 162.202C96.4181 161.643 96.9572 161.046 97.4548 160.414C97.9262 159.814 98.2458 159.109 98.3862 158.358C98.4836 157.642 98.3191 156.916 97.9235 156.313C97.5357 155.735 97.1053 155.187 96.6361 154.674C95.7764 153.71 95.2174 152.514 95.0284 151.234C94.8747 150.183 94.9932 149.109 95.3725 148.117C95.6609 147.372 96.0855 146.689 96.6243 146.102C96.962 145.733 97.3447 145.409 97.7633 145.136C97.8706 145.065 97.9815 144.999 98.0956 144.939C98.1707 144.9 98.2122 144.882 98.2201 144.886C97.6648 145.253 97.1584 145.689 96.7132 146.185C96.1997 146.77 95.7975 147.445 95.5267 148.176C95.1763 149.145 95.0762 150.187 95.236 151.204C95.429 152.438 95.98 153.587 96.82 154.507C97.3006 155.028 97.7428 155.584 98.143 156.17C98.5735 156.825 98.7547 157.615 98.6532 158.393C98.5113 159.193 98.1773 159.946 97.6803 160.587C97.1813 161.24 96.6361 161.855 96.0488 162.429C95.457 163.014 94.9534 163.683 94.5538 164.414C94.1761 165.171 94.0553 166.031 94.2097 166.864C94.5122 168.575 95.5504 169.999 96.4759 171.37C96.9451 172.049 97.356 172.767 97.704 173.516C98.043 174.247 98.225 175.041 98.2379 175.847C98.2216 176.616 98.0352 177.371 97.6921 178.059C97.3728 178.693 96.9891 179.292 96.5471 179.847C95.6988 180.92 94.8148 181.826 94.1741 182.78C93.5601 183.604 93.1826 184.581 93.0825 185.605C93.0415 186.381 93.2337 187.152 93.6342 187.817C93.886 188.238 94.2496 188.581 94.6843 188.806C94.9928 188.938 95.1767 188.961 95.1708 188.985Z" fill="#455A64"/>
<path d="M136.794 243.385C135.086 241.842 137.008 240.035 133.911 237.097C131.597 234.909 127.213 231.136 118.724 228.298L113.384 237.836L122.639 240.816L122.55 246.879C122.545 247.175 122.6 247.47 122.71 247.745C122.821 248.02 122.986 248.27 123.194 248.481C123.403 248.691 123.651 248.857 123.925 248.968C124.198 249.08 124.491 249.136 124.787 249.132L129.592 249.072C129.592 249.072 128.186 255.033 128.406 255.391C128.532 255.593 128.713 255.754 128.927 255.858C129.14 255.962 129.379 256.004 129.615 255.978C129.851 255.953 130.075 255.861 130.262 255.714C130.449 255.567 130.591 255.371 130.672 255.147C130.862 254.348 134.825 244.727 134.825 244.727C134.825 244.727 137.411 246.968 137.791 245.686C137.803 245.716 138.509 244.935 136.794 243.385Z" fill="#B78876"/>
<path d="M123.873 249.305C123.873 249.275 124.093 249.126 124.413 248.81C124.822 248.397 125.134 247.898 125.327 247.35C125.516 246.798 125.579 246.212 125.51 245.633C125.457 245.192 125.356 244.923 125.392 244.906C125.547 245.111 125.645 245.353 125.677 245.609C125.796 246.216 125.751 246.844 125.546 247.427C125.347 248.02 124.995 248.548 124.526 248.959C124.341 249.128 124.116 249.248 123.873 249.305Z" fill="#AA6550"/>
<path d="M126.958 249.108C127.361 248.538 127.673 247.908 127.884 247.242C128.019 246.557 128.047 245.855 127.967 245.162C128.084 245.34 128.155 245.545 128.175 245.758C128.26 246.269 128.238 246.793 128.11 247.295C127.981 247.797 127.748 248.267 127.427 248.673C127.178 248.989 126.958 249.126 126.958 249.108Z" fill="#AA6550"/>
<path d="M130.684 245.615C130.714 245.615 130.773 245.806 130.779 246.139C130.782 246.572 130.695 247 130.524 247.397C130.357 247.795 130.111 248.154 129.8 248.452C129.557 248.679 129.373 248.768 129.355 248.744C129.728 248.305 130.049 247.822 130.31 247.308C130.503 246.761 130.628 246.192 130.684 245.615Z" fill="#AA6550"/>
<path d="M256.652 217.735C257.186 215.875 258.325 214.081 260.093 213.312C261.861 212.543 264.062 212.972 265.943 213.658C267.824 214.343 269.675 215.261 271.668 215.386C273.661 215.511 275.922 214.558 276.521 212.638C277.084 210.85 275.999 208.913 274.646 207.601C273.211 206.223 271.455 205.228 269.539 204.708C267.622 204.188 265.607 204.16 263.676 204.625C261.746 205.091 259.963 206.036 258.49 207.373C257.017 208.711 255.902 210.398 255.246 212.281" fill="#FFD400"/>
<g opacity="0.5">
<path opacity="0.5" d="M256.652 217.735C257.186 215.875 258.325 214.081 260.093 213.312C261.861 212.543 264.062 212.972 265.943 213.658C267.824 214.343 269.675 215.261 271.668 215.386C273.661 215.511 275.922 214.558 276.521 212.638C277.084 210.85 275.999 208.913 274.646 207.601C273.211 206.223 271.455 205.228 269.539 204.708C267.622 204.188 265.607 204.16 263.676 204.625C261.746 205.091 259.963 206.036 258.49 207.373C257.017 208.711 255.902 210.398 255.246 212.281" fill="black"/>
</g>
<path d="M240.824 225.794C237.894 222.999 238.036 218.128 239.501 214.343C240.967 210.558 244.153 207.643 247.718 205.73C251.198 203.893 255.046 202.873 258.974 202.745C262.902 202.617 266.808 203.385 270.399 204.99C268.641 205.066 266.928 205.573 265.411 206.468C263.894 207.363 262.618 208.618 261.695 210.123C260.088 212.805 259.732 216.084 258.403 218.891C256.907 222.082 254.251 224.576 250.981 225.859C247.712 227.143 244.077 227.12 240.824 225.794Z" fill="#FFD400"/>
<path d="M239.412 208.984C236.167 205.139 235.734 198.958 236.215 193.939C236.695 188.919 237.852 183.864 237.063 178.881C236.594 175.93 235.455 173.111 235.07 170.148C234.684 167.185 235.23 163.829 237.514 161.922C240.142 159.722 244.277 160.241 247.006 162.303C249.735 164.366 251.319 167.609 252.476 170.846C255.021 177.945 255.953 185.82 253.864 193.068C251.776 200.317 246.876 206.779 239.691 208.984" fill="#FFD400"/>
<path d="M237.858 240.565C237.841 240.419 237.841 240.271 237.858 240.124C237.858 239.832 237.858 239.403 237.858 238.855C237.9 237.746 238 236.154 238.25 234.193C238.54 231.895 238.956 229.614 239.495 227.362C240.17 224.598 241.213 221.939 242.598 219.458C243.987 216.98 245.69 214.694 247.665 212.656C249.271 210.989 251.051 209.5 252.974 208.215C253.787 207.655 254.57 207.226 255.247 206.832C255.923 206.439 256.54 206.165 257.026 205.926L258.213 205.431C258.348 205.371 258.487 205.319 258.628 205.276C258.503 205.354 258.372 205.422 258.237 205.479L257.092 206.021C256.605 206.272 256.012 206.588 255.312 206.963C254.612 207.339 253.876 207.804 253.075 208.376C248.848 211.278 245.341 215.116 242.824 219.595C239.857 224.834 239.027 230.324 238.434 234.217C238.161 236.166 238.03 237.758 237.953 238.861L237.882 240.124C237.884 240.272 237.876 240.419 237.858 240.565Z" fill="#161344"/>
<path d="M209.862 193.802C203.858 197.444 203.876 200.758 204.878 203.882C205.881 207.005 209.571 209.181 212.626 208.012C214.353 207.351 215.593 205.843 216.672 204.329C217.752 202.815 218.743 201.187 220.232 200.102C221.721 199.017 223.904 198.594 225.405 199.673" fill="#FFD400"/>
<g opacity="0.5">
<path opacity="0.5" d="M209.862 193.802C203.858 197.444 203.876 200.758 204.878 203.882C205.881 207.005 209.571 209.181 212.626 208.012C214.353 207.351 215.593 205.843 216.672 204.329C217.752 202.815 218.743 201.187 220.232 200.102C221.721 199.017 223.904 198.594 225.405 199.673" fill="black"/>
</g>
<path d="M205.37 197.795C206.937 195.614 210.817 194.982 213.267 196.073C215.717 197.164 217.509 199.315 219.116 201.467C220.724 203.619 222.285 205.896 224.509 207.393C226.734 208.889 229.849 209.431 232.056 207.923C232.762 207.394 233.354 206.726 233.795 205.959C234.236 205.193 234.516 204.344 234.619 203.464C234.816 201.703 234.698 199.92 234.269 198.201C233.741 195.673 232.874 193.033 230.857 191.423C228.609 189.635 225.518 189.545 222.629 189.635C219.342 189.742 216.002 189.993 212.917 191.137C209.832 192.282 206.676 194.755 205.37 197.789" fill="#FFD400"/>
<path d="M232.863 235.737C232.863 235.737 232.863 235.689 232.863 235.606V235.213C232.863 234.849 232.833 234.348 232.815 233.716C232.774 232.393 232.72 230.521 232.655 228.208C232.59 225.895 232.489 223.118 232.323 220.048C232.157 216.978 231.925 213.604 231.463 210.093C231.264 208.384 230.93 206.694 230.466 205.038C229.989 203.51 229.373 202.029 228.627 200.615C227.958 199.329 227.18 198.105 226.301 196.955C225.534 195.955 224.687 195.02 223.768 194.159C222.428 192.917 220.915 191.879 219.277 191.077C218.98 190.946 218.725 190.809 218.494 190.719L217.9 190.487L217.539 190.344L217.42 190.284L217.545 190.314L217.918 190.439L218.512 190.642C218.749 190.731 219.01 190.857 219.307 190.982C220.979 191.752 222.523 192.775 223.887 194.016C224.821 194.878 225.684 195.815 226.467 196.818C227.36 197.974 228.154 199.204 228.84 200.496C229.599 201.923 230.224 203.417 230.709 204.96C231.184 206.629 231.521 208.333 231.718 210.057C232.186 213.586 232.406 216.966 232.56 220.036C232.714 223.106 232.791 225.878 232.839 228.202C232.886 230.527 232.904 232.417 232.91 233.716V235.213C232.91 235.374 232.91 235.499 232.91 235.606C232.903 235.653 232.887 235.697 232.863 235.737Z" fill="#161344"/>
<path d="M235.028 238.462C234.742 237.618 234.521 236.753 234.37 235.874C233.951 233.47 233.857 231.02 234.091 228.59C234.463 224.997 235.231 221.456 236.381 218.033C237.615 214.152 239.288 209.998 240.718 205.515C241.422 203.348 241.996 201.14 242.438 198.904C242.835 196.819 243.12 194.713 243.293 192.597C243.562 189.008 243.625 185.405 243.482 181.808C243.382 178.738 243.215 176.252 243.115 174.535C243.067 173.689 243.026 173.027 243.002 172.562C243.002 172.342 243.002 172.175 242.972 172.044C242.966 171.986 242.966 171.928 242.972 171.871C242.975 171.928 242.975 171.986 242.972 172.044C242.972 172.175 242.972 172.342 243.026 172.556C243.061 173.021 243.12 173.683 243.192 174.529C243.322 176.246 243.512 178.702 243.643 181.802C243.817 185.406 243.772 189.017 243.506 192.615C243.187 197.032 242.327 201.393 240.943 205.598C239.507 210.075 237.829 214.218 236.589 218.087C235.429 221.489 234.645 225.009 234.251 228.584C234.003 230.998 234.067 233.435 234.441 235.833C234.589 236.673 234.726 237.329 234.844 237.764C234.892 237.973 234.933 238.14 234.963 238.265L235.028 238.462Z" fill="#161344"/>
<path d="M249.913 241.191H221.721L221.074 235.737H249.913V241.191Z" fill="#455A64"/>
<path d="M224.741 240.565L228.271 256.923H243.589L246.888 240.565H224.741Z" fill="#455A64"/>
<path d="M249.913 241.209C249.913 241.281 243.714 241.323 236.067 241.305C228.419 241.287 222.226 241.203 222.226 241.126C222.226 241.048 228.419 241.013 236.067 241.031C243.714 241.048 249.913 241.114 249.913 241.209Z" fill="#455A64"/>
<path d="M245.072 249.263C244.308 248.685 243.475 248.204 242.592 247.832C241.629 247.455 240.606 247.253 239.573 247.236C238.304 247.236 237.045 247.468 235.859 247.922C234.571 248.357 233.373 248.863 232.204 249.144C231.167 249.371 230.097 249.404 229.048 249.239C228.341 249.139 227.655 248.922 227.019 248.595C226.847 248.503 226.682 248.398 226.527 248.279C226.47 248.243 226.418 248.199 226.373 248.148C226.373 248.148 226.616 248.291 227.067 248.5C227.704 248.782 228.38 248.967 229.072 249.048C230.099 249.181 231.141 249.13 232.151 248.899C233.278 248.619 234.477 248.106 235.776 247.665C236.991 247.205 238.28 246.975 239.579 246.986C240.64 247.02 241.685 247.25 242.664 247.665C243.319 247.943 243.935 248.306 244.497 248.744C244.651 248.861 244.798 248.989 244.936 249.126C245.019 249.203 245.078 249.257 245.072 249.263Z" fill="#161344"/>
<path d="M244.859 250.354C244.124 249.793 243.328 249.319 242.486 248.941C241.558 248.567 240.571 248.365 239.573 248.345C238.348 248.35 237.133 248.57 235.983 248.995C234.743 249.412 233.575 249.895 232.465 250.187C231.479 250.472 230.452 250.587 229.428 250.527C228.737 250.485 228.061 250.304 227.44 249.996C227.275 249.906 227.117 249.804 226.966 249.692C226.865 249.615 226.811 249.573 226.817 249.561C226.823 249.549 227.049 249.698 227.482 249.901C228.102 250.165 228.766 250.312 229.44 250.336C230.443 250.37 231.445 250.239 232.406 249.948C233.498 249.638 234.654 249.15 235.912 248.726C237.09 248.292 238.336 248.076 239.59 248.089C240.613 248.12 241.62 248.348 242.557 248.762C243.195 249.038 243.794 249.399 244.337 249.835C244.486 249.948 244.626 250.072 244.758 250.205C244.817 250.3 244.865 250.348 244.859 250.354Z" fill="white"/>
<path d="M245.351 248.178C244.558 247.584 243.702 247.078 242.8 246.67C241.82 246.244 240.774 245.99 239.709 245.919C238.4 245.893 237.098 246.124 235.876 246.598C234.639 247.084 233.376 247.498 232.091 247.838C231.014 248.027 229.912 248.027 228.834 247.838C228.108 247.723 227.402 247.5 226.74 247.176C226.562 247.083 226.391 246.975 226.23 246.855C226.117 246.777 226.064 246.729 226.07 246.717C226.076 246.705 226.319 246.866 226.782 247.081C227.447 247.37 228.147 247.571 228.864 247.677C229.922 247.829 230.998 247.807 232.05 247.612C233.318 247.26 234.568 246.842 235.793 246.36C237.044 245.874 238.38 245.647 239.721 245.692C240.813 245.773 241.882 246.05 242.877 246.509C243.546 246.813 244.177 247.195 244.757 247.647C244.916 247.769 245.067 247.9 245.208 248.041C245.309 248.118 245.357 248.172 245.351 248.178Z" fill="white"/>
<path d="M250.162 241.209C250.162 241.287 243.82 241.347 235.995 241.347C228.17 241.347 221.834 241.287 221.834 241.209C221.834 241.132 228.176 241.078 235.995 241.078C243.814 241.078 250.162 241.138 250.162 241.209Z" fill="#161344"/>
</svg>
